{
  "parent": "planttech2:block/basic/three_layered_six_sided",
  "textures": {
    "down_0": "minecraft:block/iron_block",
    "down_1": "planttech2:block/machine/top_down",
    "down_2": "planttech2:block/machine/growoverlay_top_down",
    "east_0": "minecraft:block/iron_block",
    "east_1": "planttech2:block/machine/side_6",
    "east_2": "planttech2:block/machine/growoverlay_left_5",
    "north_0": "minecraft:block/iron_block",
    "north_1": "planttech2:block/machine/side_6",
    "north_2": "planttech2:block/machine/growoverlay_front_5",
    "particle": "minecraft:block/iron_block",
    "south_0": "minecraft:block/iron_block",
    "south_1": "planttech2:block/machine/side_6",
    "south_2": "planttech2:block/machine/growoverlay_back_5",
    "up_0": "minecraft:block/iron_block",
    "up_1": "planttech2:block/machine/top_down",
    "up_2": "planttech2:block/empty",
    "west_0": "minecraft:block/iron_block",
    "west_1": "planttech2:block/machine/side_6",
    "west_2": "planttech2:block/machine/growoverlay_right_5"
  }
}