{
  "type": "planttech2:infusing",
  "biomass": 300,
  "input": {
    "item": "planttech2:catalyst_water_sensitivity_i"
  },
  "result": {
    "count": 1,
    "item": "planttech2:catalyst_water_sensitivity_ii"
  }
}