{
  "type": "planttech2:infusing",
  "biomass": 100,
  "input": {
    "item": "planttech2:snail_shell_dust_black"
  },
  "result": {
    "count": 1,
    "item": "planttech2:catalyst_energy_value"
  }
}