{
  "type": "planttech2:infusing",
  "biomass": 200,
  "input": {
    "item": "planttech2:catalyst_energy_value"
  },
  "result": {
    "count": 1,
    "item": "planttech2:catalyst_energy_value_i"
  }
}