{
    "1.14.4": {
        "0.00.22": "See https://www.curseforge.com/minecraft/mc-mods/planttech-2/files for detailed information.",
        "0.00.23": "See https://www.curseforge.com/minecraft/mc-mods/planttech-2/files for detailed information.",
        "0.00.24": "See https://www.curseforge.com/minecraft/mc-mods/planttech-2/files for detailed information.",
        "0.00.25": "See https://www.curseforge.com/minecraft/mc-mods/planttech-2/files for detailed information.",
        "0.00.26": "See https://www.curseforge.com/minecraft/mc-mods/planttech-2/files for detailed information.",
        "0.00.27": "See https://www.curseforge.com/minecraft/mc-mods/planttech-2/files for detailed information.",
        "0.00.28": "See https://www.curseforge.com/minecraft/mc-mods/planttech-2/files for detailed information.",
        "0.00.29": "See https://www.curseforge.com/minecraft/mc-mods/planttech-2/files for detailed information.",
        "0.01.00": "See https://www.curseforge.com/minecraft/mc-mods/planttech-2/files for detailed information.",
        "0.01.01": "See https://www.curseforge.com/minecraft/mc-mods/planttech-2/files for detailed information.",
        "0.01.02": "See https://www.curseforge.com/minecraft/mc-mods/planttech-2/files for detailed information.",
        "0.01.03": "See https://www.curseforge.com/minecraft/mc-mods/planttech-2/files for detailed information.",
        "0.01.04": "See https://www.curseforge.com/minecraft/mc-mods/planttech-2/files for detailed information.",
        "0.01.05": "See https://www.curseforge.com/minecraft/mc-mods/planttech-2/files for detailed information."
    },
    "1.15.2": {
        "0.00.22": "See https://www.curseforge.com/minecraft/mc-mods/planttech-2/files for detailed information.",
        "0.00.23": "See https://www.curseforge.com/minecraft/mc-mods/planttech-2/files for detailed information.",
        "0.00.24": "See https://www.curseforge.com/minecraft/mc-mods/planttech-2/files for detailed information.",
        "0.00.25": "See https://www.curseforge.com/minecraft/mc-mods/planttech-2/files for detailed information.",
        "0.00.26": "See https://www.curseforge.com/minecraft/mc-mods/planttech-2/files for detailed information.",
        "0.00.27": "See https://www.curseforge.com/minecraft/mc-mods/planttech-2/files for detailed information.",
        "0.00.28": "See https://www.curseforge.com/minecraft/mc-mods/planttech-2/files for detailed information.",
        "0.00.29": "See https://www.curseforge.com/minecraft/mc-mods/planttech-2/files for detailed information.",
        "0.01.00": "See https://www.curseforge.com/minecraft/mc-mods/planttech-2/files for detailed information.",
        "0.01.01": "See https://www.curseforge.com/minecraft/mc-mods/planttech-2/files for detailed information.",
        "0.01.02": "See https://www.curseforge.com/minecraft/mc-mods/planttech-2/files for detailed information.",
        "0.01.03": "See https://www.curseforge.com/minecraft/mc-mods/planttech-2/files for detailed information.",
        "0.01.04": "See https://www.curseforge.com/minecraft/mc-mods/planttech-2/files for detailed information.",
        "0.01.05": "See https://www.curseforge.com/minecraft/mc-mods/planttech-2/files for detailed information.",
        "0.01.06": "See https://www.curseforge.com/minecraft/mc-mods/planttech-2/files for detailed information.",
        "0.02.00": "See https://www.curseforge.com/minecraft/mc-mods/planttech-2/files for detailed information.",
        "0.02.01": "See https://www.curseforge.com/minecraft/mc-mods/planttech-2/files for detailed information.",
        "0.02.02": "See https://www.curseforge.com/minecraft/mc-mods/planttech-2/files for detailed information.",
        "0.02.03": "See https://www.curseforge.com/minecraft/mc-mods/planttech-2/files for detailed information.",
        "0.02.04": "See https://www.curseforge.com/minecraft/mc-mods/planttech-2/files for detailed information.",
        "0.02.05": "See https://www.curseforge.com/minecraft/mc-mods/planttech-2/files for detailed information.",
        "0.02.06": "See https://www.curseforge.com/minecraft/mc-mods/planttech-2/files for detailed information.",
        "0.02.07": "See https://www.curseforge.com/minecraft/mc-mods/planttech-2/files for detailed information.",
        "0.02.08": "See https://www.curseforge.com/minecraft/mc-mods/planttech-2/files for detailed information.",
        "0.02.09": "See https://www.curseforge.com/minecraft/mc-mods/planttech-2/files for detailed information.",
        "0.02.10": "See https://www.curseforge.com/minecraft/mc-mods/planttech-2/files for detailed information.",
        "0.02.11": "See https://www.curseforge.com/minecraft/mc-mods/planttech-2/files for detailed information."
    },
    "1.16.2": {
        "0.02.12": "See https://www.curseforge.com/minecraft/mc-mods/planttech-2/files for detailed information.",
        "0.02.13": "See https://www.curseforge.com/minecraft/mc-mods/planttech-2/files for detailed information.",
        "0.02.14": "See https://www.curseforge.com/minecraft/mc-mods/planttech-2/files for detailed information.",
        "0.02.15": "See https://www.curseforge.com/minecraft/mc-mods/planttech-2/files for detailed information.",
        "0.02.16": "See https://www.curseforge.com/minecraft/mc-mods/planttech-2/files for detailed information."
    },
    "1.16.3": {
        "0.02.16": "See https://www.curseforge.com/minecraft/mc-mods/planttech-2/files for detailed information.",
        "0.02.17": "See https://www.curseforge.com/minecraft/mc-mods/planttech-2/files for detailed information.",
        "0.02.18": "See https://www.curseforge.com/minecraft/mc-mods/planttech-2/files for detailed information.",
        "0.02.19": "See https://www.curseforge.com/minecraft/mc-mods/planttech-2/files for detailed information.",
        "0.02.20": "See https://www.curseforge.com/minecraft/mc-mods/planttech-2/files for detailed information."
    },
    "1.16.4": {
        "0.02.20": "See https://www.curseforge.com/minecraft/mc-mods/planttech-2/files for detailed information.",
        "0.02.21": "See https://www.curseforge.com/minecraft/mc-mods/planttech-2/files for detailed information.",
        "0.02.22": "See https://www.curseforge.com/minecraft/mc-mods/planttech-2/files for detailed information.",
        "0.02.23": "See https://www.curseforge.com/minecraft/mc-mods/planttech-2/files for detailed information.",
        "0.02.24": "See https://www.curseforge.com/minecraft/mc-mods/planttech-2/files for detailed information.",
        "0.02.25": "See https://www.curseforge.com/minecraft/mc-mods/planttech-2/files for detailed information.",
        "0.02.26": "See https://www.curseforge.com/minecraft/mc-mods/planttech-2/files for detailed information."
    },
    "1.16.5": {
        "0.02.27": "See https://www.curseforge.com/minecraft/mc-mods/planttech-2/files for detailed information.",
        "0.02.28": "See https://www.curseforge.com/minecraft/mc-mods/planttech-2/files for detailed information.",
        "0.02.29": "See https://www.curseforge.com/minecraft/mc-mods/planttech-2/files for detailed information.",
        "0.02.30": "See https://www.curseforge.com/minecraft/mc-mods/planttech-2/files for detailed information.",
        "0.02.31": "See https://www.curseforge.com/minecraft/mc-mods/planttech-2/files for detailed information."
    },
    "1.17.1": {
        "0.02.32": "See https://www.curseforge.com/minecraft/mc-mods/planttech-2/files for detailed information.",
        "0.02.33": "See https://www.curseforge.com/minecraft/mc-mods/planttech-2/files for detailed information.",
        "0.02.34": "See https://www.curseforge.com/minecraft/mc-mods/planttech-2/files for detailed information.",
        "0.02.35": "See https://www.curseforge.com/minecraft/mc-mods/planttech-2/files for detailed information.",
        "0.02.36": "See https://www.curseforge.com/minecraft/mc-mods/planttech-2/files for detailed information.",
        "0.02.37": "See https://www.curseforge.com/minecraft/mc-mods/planttech-2/files for detailed information.",
        "0.02.38": "See https://www.curseforge.com/minecraft/mc-mods/planttech-2/files for detailed information.",
        "0.02.39": "See https://www.curseforge.com/minecraft/mc-mods/planttech-2/files for detailed information.",
        "0.02.40": "See https://www.curseforge.com/minecraft/mc-mods/planttech-2/files for detailed information."
    },
    "1.18.1": {
        "0.02.40": "See https://www.curseforge.com/minecraft/mc-mods/planttech-2/files for detailed information.",
        "0.02.41": "See https://www.curseforge.com/minecraft/mc-mods/planttech-2/files for detailed information.",
        "0.02.42": "See https://www.curseforge.com/minecraft/mc-mods/planttech-2/files for detailed information.",
        "0.02.43": "See https://www.curseforge.com/minecraft/mc-mods/planttech-2/files for detailed information.",
        "0.02.44": "See https://www.curseforge.com/minecraft/mc-mods/planttech-2/files for detailed information.",
        "0.02.45": "See https://www.curseforge.com/minecraft/mc-mods/planttech-2/files for detailed information."
    },
    "1.18.2": {
        "0.02.46": "See https://www.curseforge.com/minecraft/mc-mods/planttech-2/files for detailed information.",
        "0.02.47": "See https://www.curseforge.com/minecraft/mc-mods/planttech-2/files for detailed information.",
        "0.02.48": "See https://www.curseforge.com/minecraft/mc-mods/planttech-2/files for detailed information."
    },
    "1.19": {
        "0.02.49": "See https://www.curseforge.com/minecraft/mc-mods/planttech-2/files for detailed information.",
        "0.02.50": "See https://www.curseforge.com/minecraft/mc-mods/planttech-2/files for detailed information.",
        "0.02.51": "See https://www.curseforge.com/minecraft/mc-mods/planttech-2/files for detailed information.",
        "0.02.52": "See https://www.curseforge.com/minecraft/mc-mods/planttech-2/files for detailed information."
    },
    "1.19.1": {
        "0.02.53": "See https://www.curseforge.com/minecraft/mc-mods/planttech-2/files for detailed information."
    },
    "1.19.2": {
        "0.02.54": "See https://www.curseforge.com/minecraft/mc-mods/planttech-2/files for detailed information.",
        "0.02.55": "See https://www.curseforge.com/minecraft/mc-mods/planttech-2/files for detailed information.",
        "0.02.56": "See https://www.curseforge.com/minecraft/mc-mods/planttech-2/files for detailed information."
    },
    "1.19.3": {
        "0.02.57": "See https://www.curseforge.com/minecraft/mc-mods/planttech-2/files for detailed information.",
        "0.02.58": "See https://www.curseforge.com/minecraft/mc-mods/planttech-2/files for detailed information.",
        "0.02.59": "See https://www.curseforge.com/minecraft/mc-mods/planttech-2/files for detailed information.",
        "0.02.60": "See https://www.curseforge.com/minecraft/mc-mods/planttech-2/files for detailed information.",
        "0.02.61": "See https://www.curseforge.com/minecraft/mc-mods/planttech-2/files for detailed information."
    },
    "1.19.4": {
        "0.02.62": "See https://www.curseforge.com/minecraft/mc-mods/planttech-2/files for detailed information.",
        "0.02.631": "See https://www.curseforge.com/minecraft/mc-mods/planttech-2/files for detailed information."
    },
    "1.20": {
        "0.02.64": "See https://www.curseforge.com/minecraft/mc-mods/planttech-2/files for detailed information.",
        "0.02.641": "See https://www.curseforge.com/minecraft/mc-mods/planttech-2/files for detailed information.",
        "0.02.642": "See https://www.curseforge.com/minecraft/mc-mods/planttech-2/files for detailed information."
    },
    "1.20.1": {
        "0.02.65": "See https://www.curseforge.com/minecraft/mc-mods/planttech-2/files for detailed information.",
        "0.02.66": "See https://www.curseforge.com/minecraft/mc-mods/planttech-2/files for detailed information.",
        "0.02.67": "See https://www.curseforge.com/minecraft/mc-mods/planttech-2/files for detailed information.",
        "0.02.68": "See https://www.curseforge.com/minecraft/mc-mods/planttech-2/files for detailed information.",
        "0.02.681": "See https://www.curseforge.com/minecraft/mc-mods/planttech-2/files for detailed information.",
        "0.02.682": "See https://www.curseforge.com/minecraft/mc-mods/planttech-2/files for detailed information.",
        "0.02.683": "See https://www.curseforge.com/minecraft/mc-mods/planttech-2/files for detailed information.",
        "0.02.69": "See https://www.curseforge.com/minecraft/mc-mods/planttech-2/files for detailed information.",
        "0.02.691": "See https://www.curseforge.com/minecraft/mc-mods/planttech-2/files for detailed information.",
        "0.02.692": "See https://www.curseforge.com/minecraft/mc-mods/planttech-2/files for detailed information.",
        "0.02.693": "See https://www.curseforge.com/minecraft/mc-mods/planttech-2/files for detailed information.",
        "0.02.694": "See https://www.curseforge.com/minecraft/mc-mods/planttech-2/files for detailed information.",
        "0.02.695": "See https://www.curseforge.com/minecraft/mc-mods/planttech-2/files for detailed information.",
        "0.02.696": "See https://www.curseforge.com/minecraft/mc-mods/planttech-2/files for detailed information."
    },
    "homepage": "https://www.curseforge.com/minecraft/mc-mods/planttech-2",
    "promos": {
        "1.14.4-latest": "0.01.05",
        "1.14.4-recommended": "0.01.05",
        "1.15.2-latest": "0.02.11",
        "1.15.2-recommended": "0.02.11",
        "1.16.2-latest": "0.02.16",
        "1.16.2-recommended": "0.02.16",
        "1.16.3-latest": "0.02.20",
        "1.16.3-recommended": "0.02.20",
        "1.16.4-latest": "0.02.26",
        "1.16.4-recommended": "0.02.26",
        "1.16.5-latest": "0.02.31",
        "1.16.5-recommended": "0.02.31",
        "1.17.1-latest": "0.02.40",
        "1.17.1-recommended": "0.02.40",
        "1.18.1-latest": "0.02.45",
        "1.18.1-recommended": "0.02.45",
        "1.18.2-latest": "0.02.48",
        "1.18.2-recommended": "0.02.48",
        "1.19-latest": "0.02.52",
        "1.19-recommended": "0.02.52",
        "1.19.1-latest": "0.02.53",
        "1.19.1-recommended": "0.02.53",
        "1.19.2-latest": "0.02.56",
        "1.19.2-recommended": "0.02.56",
        "1.19.3-latest": "0.02.61",
        "1.19.3-recommended": "0.02.61",
        "1.19.4-latest": "0.02.631",
        "1.19.4-recommended": "0.02.631",
        "1.20-latest": "0.02.642",
        "1.20-recommended": "0.02.642",
        "1.20.1-latest": "0.02.696",
        "1.20.1-recommended": "0.02.696"
    }
}