{
  "parent": "minecraft:item/generated",
  "textures": {
    "layer0": "planttech2:item/machinebulbs/machinebulb_layer_1",
    "layer1": "planttech2:item/machinebulbs/machinebulb_layer_2_solargenerator"
  }
}