{
  "type": "minecraft:entity",
  "pools": [
    {
      "bonus_rolls": 0.0,
      "entries": [
        {
          "type": "minecraft:item",
          "functions": [
            {
              "add": false,
              "count": {
                "type": "minecraft:uniform",
                "max": 1.0,
                "min": 0.0
              },
              "function": "minecraft:set_count"
            }
          ],
          "name": "minecraft:slime_ball"
        },
        {
          "type": "minecraft:item",
          "functions": [
            {
              "add": false,
              "count": {
                "type": "minecraft:binomial",
                "n": 4.0,
                "p": 0.1
              },
              "function": "minecraft:set_count"
            }
          ],
          "name": "planttech2:cracked_snail_shell_black",
          "weight": 8
        }
      ],
      "rolls": 1.0
    }
  ],
  "random_sequence": "planttech2:entities/snail_black"
}