{
    "type": "minecraft:crafting_shaped",
    "pattern": [
        "ABA",
        "A A",
        "AAA"
    ],
    "key": {
        "A": 
        {
            "item": "minecraft:glass_pane"
        },
        "B": 
        {
            "tag": "minecraft:planks"
        }
    },
    "result": {
        "item": "planttech2:dna_container_empty",
        "count": 16
    }
}
