{
	"parent": "planttech2:block/basic/two_layered_six_sided", 
	"textures": 
	{
        "particle": "block/iron_block",
        "top_buttom": "block/iron_block",
        "side": "block/iron_block",
        "overlay_top_buttom": "planttech2:block/empty",
        "overlay_side": "planttech2:block/machine/side_5"
    }
}