{
  "variants": {
    "type=bottom": {
      "model": "planttech2:block/brown_mushroom_slab"
    },
    "type=double": {
      "model": "minecraft:block/brown_mushroom_block_inventory"
    },
    "type=top": {
      "model": "planttech2:block/brown_mushroom_slab_top"
    }
  }
}