{
  "variants": {
    "copper=false,growstate=0": {
      "model": "planttech2:block/crop_0"
    },
    "copper=false,growstate=1": {
      "model": "planttech2:block/crop_1"
    },
    "copper=false,growstate=2": {
      "model": "planttech2:block/crop_2"
    },
    "copper=false,growstate=3": {
      "model": "planttech2:block/crop_3"
    },
    "copper=false,growstate=4": {
      "model": "planttech2:block/crop_4"
    },
    "copper=false,growstate=5": {
      "model": "planttech2:block/crop_5"
    },
    "copper=false,growstate=6": {
      "model": "planttech2:block/crop_6"
    },
    "copper=false,growstate=7": {
      "model": "planttech2:block/crop_7"
    },
    "copper=true,growstate=0": {
      "model": "planttech2:block/crop_copper_0"
    },
    "copper=true,growstate=1": {
      "model": "planttech2:block/crop_copper_1"
    },
    "copper=true,growstate=2": {
      "model": "planttech2:block/crop_copper_2"
    },
    "copper=true,growstate=3": {
      "model": "planttech2:block/crop_copper_3"
    },
    "copper=true,growstate=4": {
      "model": "planttech2:block/crop_copper_4"
    },
    "copper=true,growstate=5": {
      "model": "planttech2:block/crop_copper_5"
    },
    "copper=true,growstate=6": {
      "model": "planttech2:block/crop_copper_6"
    },
    "copper=true,growstate=7": {
      "model": "planttech2:block/crop_copper_7"
    }
  }
}