{
  "variants": {
    "facing=east": {
      "model": "planttech2:block/machine/compressor",
      "y": 90
    },
    "facing=north": {
      "model": "planttech2:block/machine/compressor"
    },
    "facing=south": {
      "model": "planttech2:block/machine/compressor",
      "y": 180
    },
    "facing=west": {
      "model": "planttech2:block/machine/compressor",
      "y": 270
    }
  }
}