{
  "multipart": [
    {
      "apply": {
        "model": "planttech2:block/electric_fences/electric_fence_post"
      }
    },
    {
      "apply": {
        "model": "planttech2:block/electric_fences/electric_fence_side",
        "y": 90
      },
      "when": {
        "east": "true",
        "electric_power": "0"
      }
    },
    {
      "apply": {
        "model": "planttech2:block/electric_fences/electric_fence_side"
      },
      "when": {
        "electric_power": "0",
        "north": "true"
      }
    },
    {
      "apply": {
        "model": "planttech2:block/electric_fences/electric_fence_side",
        "y": 180
      },
      "when": {
        "electric_power": "0",
        "south": "true"
      }
    },
    {
      "apply": {
        "model": "planttech2:block/electric_fences/electric_fence_side",
        "y": 270
      },
      "when": {
        "electric_power": "0",
        "west": "true"
      }
    },
    {
      "apply": {
        "model": "planttech2:block/electric_fences/electric_fence_side_powered",
        "y": 90
      },
      "when": {
        "east": "true",
        "electric_power": "1"
      }
    },
    {
      "apply": {
        "model": "planttech2:block/electric_fences/electric_fence_side_powered"
      },
      "when": {
        "electric_power": "1",
        "north": "true"
      }
    },
    {
      "apply": {
        "model": "planttech2:block/electric_fences/electric_fence_side_powered",
        "y": 180
      },
      "when": {
        "electric_power": "1",
        "south": "true"
      }
    },
    {
      "apply": {
        "model": "planttech2:block/electric_fences/electric_fence_side_powered",
        "y": 270
      },
      "when": {
        "electric_power": "1",
        "west": "true"
      }
    },
    {
      "apply": {
        "model": "planttech2:block/electric_fences/electric_fence_side_powered",
        "y": 90
      },
      "when": {
        "east": "true",
        "electric_power": "2"
      }
    },
    {
      "apply": {
        "model": "planttech2:block/electric_fences/electric_fence_side_powered"
      },
      "when": {
        "electric_power": "2",
        "north": "true"
      }
    },
    {
      "apply": {
        "model": "planttech2:block/electric_fences/electric_fence_side_powered",
        "y": 180
      },
      "when": {
        "electric_power": "2",
        "south": "true"
      }
    },
    {
      "apply": {
        "model": "planttech2:block/electric_fences/electric_fence_side_powered",
        "y": 270
      },
      "when": {
        "electric_power": "2",
        "west": "true"
      }
    },
    {
      "apply": {
        "model": "planttech2:block/electric_fences/electric_fence_side_powered",
        "y": 90
      },
      "when": {
        "east": "true",
        "electric_power": "3"
      }
    },
    {
      "apply": {
        "model": "planttech2:block/electric_fences/electric_fence_side_powered"
      },
      "when": {
        "electric_power": "3",
        "north": "true"
      }
    },
    {
      "apply": {
        "model": "planttech2:block/electric_fences/electric_fence_side_powered",
        "y": 180
      },
      "when": {
        "electric_power": "3",
        "south": "true"
      }
    },
    {
      "apply": {
        "model": "planttech2:block/electric_fences/electric_fence_side_powered",
        "y": 270
      },
      "when": {
        "electric_power": "3",
        "west": "true"
      }
    },
    {
      "apply": {
        "model": "planttech2:block/electric_fences/electric_fence_side_powered",
        "y": 90
      },
      "when": {
        "east": "true",
        "electric_power": "4"
      }
    },
    {
      "apply": {
        "model": "planttech2:block/electric_fences/electric_fence_side_powered"
      },
      "when": {
        "electric_power": "4",
        "north": "true"
      }
    },
    {
      "apply": {
        "model": "planttech2:block/electric_fences/electric_fence_side_powered",
        "y": 180
      },
      "when": {
        "electric_power": "4",
        "south": "true"
      }
    },
    {
      "apply": {
        "model": "planttech2:block/electric_fences/electric_fence_side_powered",
        "y": 270
      },
      "when": {
        "electric_power": "4",
        "west": "true"
      }
    },
    {
      "apply": {
        "model": "planttech2:block/electric_fences/electric_fence_side_powered",
        "y": 90
      },
      "when": {
        "east": "true",
        "electric_power": "5"
      }
    },
    {
      "apply": {
        "model": "planttech2:block/electric_fences/electric_fence_side_powered"
      },
      "when": {
        "electric_power": "5",
        "north": "true"
      }
    },
    {
      "apply": {
        "model": "planttech2:block/electric_fences/electric_fence_side_powered",
        "y": 180
      },
      "when": {
        "electric_power": "5",
        "south": "true"
      }
    },
    {
      "apply": {
        "model": "planttech2:block/electric_fences/electric_fence_side_powered",
        "y": 270
      },
      "when": {
        "electric_power": "5",
        "west": "true"
      }
    },
    {
      "apply": {
        "model": "planttech2:block/electric_fences/electric_fence_side_powered",
        "y": 90
      },
      "when": {
        "east": "true",
        "electric_power": "6"
      }
    },
    {
      "apply": {
        "model": "planttech2:block/electric_fences/electric_fence_side_powered"
      },
      "when": {
        "electric_power": "6",
        "north": "true"
      }
    },
    {
      "apply": {
        "model": "planttech2:block/electric_fences/electric_fence_side_powered",
        "y": 180
      },
      "when": {
        "electric_power": "6",
        "south": "true"
      }
    },
    {
      "apply": {
        "model": "planttech2:block/electric_fences/electric_fence_side_powered",
        "y": 270
      },
      "when": {
        "electric_power": "6",
        "west": "true"
      }
    },
    {
      "apply": {
        "model": "planttech2:block/electric_fences/electric_fence_side_powered",
        "y": 90
      },
      "when": {
        "east": "true",
        "electric_power": "7"
      }
    },
    {
      "apply": {
        "model": "planttech2:block/electric_fences/electric_fence_side_powered"
      },
      "when": {
        "electric_power": "7",
        "north": "true"
      }
    },
    {
      "apply": {
        "model": "planttech2:block/electric_fences/electric_fence_side_powered",
        "y": 180
      },
      "when": {
        "electric_power": "7",
        "south": "true"
      }
    },
    {
      "apply": {
        "model": "planttech2:block/electric_fences/electric_fence_side_powered",
        "y": 270
      },
      "when": {
        "electric_power": "7",
        "west": "true"
      }
    },
    {
      "apply": {
        "model": "planttech2:block/electric_fences/electric_fence_side_powered",
        "y": 90
      },
      "when": {
        "east": "true",
        "electric_power": "8"
      }
    },
    {
      "apply": {
        "model": "planttech2:block/electric_fences/electric_fence_side_powered"
      },
      "when": {
        "electric_power": "8",
        "north": "true"
      }
    },
    {
      "apply": {
        "model": "planttech2:block/electric_fences/electric_fence_side_powered",
        "y": 180
      },
      "when": {
        "electric_power": "8",
        "south": "true"
      }
    },
    {
      "apply": {
        "model": "planttech2:block/electric_fences/electric_fence_side_powered",
        "y": 270
      },
      "when": {
        "electric_power": "8",
        "west": "true"
      }
    },
    {
      "apply": {
        "model": "planttech2:block/electric_fences/electric_fence_side_powered",
        "y": 90
      },
      "when": {
        "east": "true",
        "electric_power": "9"
      }
    },
    {
      "apply": {
        "model": "planttech2:block/electric_fences/electric_fence_side_powered"
      },
      "when": {
        "electric_power": "9",
        "north": "true"
      }
    },
    {
      "apply": {
        "model": "planttech2:block/electric_fences/electric_fence_side_powered",
        "y": 180
      },
      "when": {
        "electric_power": "9",
        "south": "true"
      }
    },
    {
      "apply": {
        "model": "planttech2:block/electric_fences/electric_fence_side_powered",
        "y": 270
      },
      "when": {
        "electric_power": "9",
        "west": "true"
      }
    },
    {
      "apply": {
        "model": "planttech2:block/electric_fences/electric_fence_side_powered",
        "y": 90
      },
      "when": {
        "east": "true",
        "electric_power": "10"
      }
    },
    {
      "apply": {
        "model": "planttech2:block/electric_fences/electric_fence_side_powered"
      },
      "when": {
        "electric_power": "10",
        "north": "true"
      }
    },
    {
      "apply": {
        "model": "planttech2:block/electric_fences/electric_fence_side_powered",
        "y": 180
      },
      "when": {
        "electric_power": "10",
        "south": "true"
      }
    },
    {
      "apply": {
        "model": "planttech2:block/electric_fences/electric_fence_side_powered",
        "y": 270
      },
      "when": {
        "electric_power": "10",
        "west": "true"
      }
    },
    {
      "apply": {
        "model": "planttech2:block/electric_fences/electric_fence_side_powered",
        "y": 90
      },
      "when": {
        "east": "true",
        "electric_power": "11"
      }
    },
    {
      "apply": {
        "model": "planttech2:block/electric_fences/electric_fence_side_powered"
      },
      "when": {
        "electric_power": "11",
        "north": "true"
      }
    },
    {
      "apply": {
        "model": "planttech2:block/electric_fences/electric_fence_side_powered",
        "y": 180
      },
      "when": {
        "electric_power": "11",
        "south": "true"
      }
    },
    {
      "apply": {
        "model": "planttech2:block/electric_fences/electric_fence_side_powered",
        "y": 270
      },
      "when": {
        "electric_power": "11",
        "west": "true"
      }
    },
    {
      "apply": {
        "model": "planttech2:block/electric_fences/electric_fence_side_powered",
        "y": 90
      },
      "when": {
        "east": "true",
        "electric_power": "12"
      }
    },
    {
      "apply": {
        "model": "planttech2:block/electric_fences/electric_fence_side_powered"
      },
      "when": {
        "electric_power": "12",
        "north": "true"
      }
    },
    {
      "apply": {
        "model": "planttech2:block/electric_fences/electric_fence_side_powered",
        "y": 180
      },
      "when": {
        "electric_power": "12",
        "south": "true"
      }
    },
    {
      "apply": {
        "model": "planttech2:block/electric_fences/electric_fence_side_powered",
        "y": 270
      },
      "when": {
        "electric_power": "12",
        "west": "true"
      }
    },
    {
      "apply": {
        "model": "planttech2:block/electric_fences/electric_fence_side_powered",
        "y": 90
      },
      "when": {
        "east": "true",
        "electric_power": "13"
      }
    },
    {
      "apply": {
        "model": "planttech2:block/electric_fences/electric_fence_side_powered"
      },
      "when": {
        "electric_power": "13",
        "north": "true"
      }
    },
    {
      "apply": {
        "model": "planttech2:block/electric_fences/electric_fence_side_powered",
        "y": 180
      },
      "when": {
        "electric_power": "13",
        "south": "true"
      }
    },
    {
      "apply": {
        "model": "planttech2:block/electric_fences/electric_fence_side_powered",
        "y": 270
      },
      "when": {
        "electric_power": "13",
        "west": "true"
      }
    },
    {
      "apply": {
        "model": "planttech2:block/electric_fences/electric_fence_side_powered",
        "y": 90
      },
      "when": {
        "east": "true",
        "electric_power": "14"
      }
    },
    {
      "apply": {
        "model": "planttech2:block/electric_fences/electric_fence_side_powered"
      },
      "when": {
        "electric_power": "14",
        "north": "true"
      }
    },
    {
      "apply": {
        "model": "planttech2:block/electric_fences/electric_fence_side_powered",
        "y": 180
      },
      "when": {
        "electric_power": "14",
        "south": "true"
      }
    },
    {
      "apply": {
        "model": "planttech2:block/electric_fences/electric_fence_side_powered",
        "y": 270
      },
      "when": {
        "electric_power": "14",
        "west": "true"
      }
    },
    {
      "apply": {
        "model": "planttech2:block/electric_fences/electric_fence_side_powered",
        "y": 90
      },
      "when": {
        "east": "true",
        "electric_power": "15"
      }
    },
    {
      "apply": {
        "model": "planttech2:block/electric_fences/electric_fence_side_powered"
      },
      "when": {
        "electric_power": "15",
        "north": "true"
      }
    },
    {
      "apply": {
        "model": "planttech2:block/electric_fences/electric_fence_side_powered",
        "y": 180
      },
      "when": {
        "electric_power": "15",
        "south": "true"
      }
    },
    {
      "apply": {
        "model": "planttech2:block/electric_fences/electric_fence_side_powered",
        "y": 270
      },
      "when": {
        "electric_power": "15",
        "west": "true"
      }
    }
  ]
}