{
  "multipart": [
    {
      "apply": {
        "model": "planttech2:block/hedge/acacia_acacia_grass_base"
      }
    },
    {
      "apply": {
        "model": "planttech2:block/hedge/acacia_acacia_grass_adding",
        "y": 270
      },
      "when": {
        "north": "true"
      }
    },
    {
      "apply": {
        "model": "planttech2:block/hedge/acacia_acacia_none",
        "y": 270
      },
      "when": {
        "north": "false"
      }
    },
    {
      "apply": {
        "model": "planttech2:block/hedge/acacia_acacia_grass_adding"
      },
      "when": {
        "east": "true"
      }
    },
    {
      "apply": {
        "model": "planttech2:block/hedge/acacia_acacia_none"
      },
      "when": {
        "east": "false"
      }
    },
    {
      "apply": {
        "model": "planttech2:block/hedge/acacia_acacia_grass_adding",
        "y": 90
      },
      "when": {
        "south": "true"
      }
    },
    {
      "apply": {
        "model": "planttech2:block/hedge/acacia_acacia_none",
        "y": 90
      },
      "when": {
        "south": "false"
      }
    },
    {
      "apply": {
        "model": "planttech2:block/hedge/acacia_acacia_grass_adding",
        "y": 180
      },
      "when": {
        "west": "true"
      }
    },
    {
      "apply": {
        "model": "planttech2:block/hedge/acacia_acacia_none",
        "y": 180
      },
      "when": {
        "west": "false"
      }
    }
  ]
}