{
  "type": "minecraft:crafting_shaped",
  "category": "building",
  "key": {
    "m": {
      "item": "minecraft:brown_mushroom_block"
    }
  },
  "pattern": [
    "mmm",
    "mmm"
  ],
  "result": {
    "count": 2,
    "item": "planttech2:brown_mushroom_trapdoor"
  },
  "show_notification": true
}