{
  "type": "minecraft:crafting_shaped",
  "category": "building",
  "key": {
    "m": {
      "item": "minecraft:crimson_hyphae"
    }
  },
  "pattern": [
    "mmm"
  ],
  "result": {
    "count": 6,
    "item": "planttech2:crimson_hyphae_slab"
  },
  "show_notification": true
}