{
  "type": "minecraft:crafting_shaped",
  "category": "building",
  "key": {
    "A": {
      "item": "minecraft:acacia_leaves"
    },
    "B": {
      "item": "minecraft:dark_oak_log"
    },
    "C": {
      "item": "minecraft:grass_block"
    }
  },
  "pattern": [
    " A ",
    " A ",
    "BCB"
  ],
  "result": {
    "count": 6,
    "item": "planttech2:hedge_acacia_dark_oak_grass"
  },
  "show_notification": true
}