{
  "type": "minecraft:crafting_shaped",
  "category": "building",
  "key": {
    "A": {
      "item": "minecraft:jungle_leaves"
    },
    "B": {
      "item": "minecraft:spruce_log"
    },
    "C": {
      "item": "minecraft:dirt"
    }
  },
  "pattern": [
    " A ",
    " A ",
    "BCB"
  ],
  "result": {
    "count": 6,
    "item": "planttech2:hedge_jungle_spruce_dirt"
  },
  "show_notification": true
}