{
  "type": "minecraft:crafting_shaped",
  "category": "building",
  "key": {
    "A": {
      "item": "minecraft:jungle_leaves"
    },
    "B": {
      "item": "minecraft:oak_log"
    },
    "C": {
      "item": "minecraft:podzol"
    }
  },
  "pattern": [
    " A ",
    " A ",
    "BCB"
  ],
  "result": {
    "count": 6,
    "item": "planttech2:hedge_jungle_oak_podzol"
  },
  "show_notification": true
}