{
  "type": "minecraft:crafting_shaped",
  "category": "equipment",
  "key": {
    "I": {
      "tag": "forge:ingots/iron"
    },
    "P": {
      "item": "planttech2:plantium_ingot"
    }
  },
  "pattern": [
    "III",
    " P ",
    " P "
  ],
  "result": {
    "item": "planttech2:rake"
  },
  "show_notification": true
}