{
  "type": "minecraft:crafting_shaped",
  "category": "misc",
  "key": {
    "A": {
      "item": "minecraft:glass_pane"
    },
    "B": {
      "item": "planttech2:rangeupgrade_3"
    },
    "C": {
      "item": "minecraft:diamond_hoe"
    }
  },
  "pattern": [
    "ABA",
    "BCB",
    "ABA"
  ],
  "result": {
    "item": "planttech2:rangeupgrade_4"
  },
  "show_notification": true
}