{
  "surface_builder": "minecraft:swamp",
  "depth": 0.025,
  "scale": 0.1,
  "temperature": 0.8,
  "downfall": 0.7,
  "precipitation": "rain",
  "category": "swamp",
  "effects": {
    "sky_color": 750899,
    "fog_color": 8087638,
    "water_color": 3169560,
    "water_fog_color": 3243096,
    "grass_color": 668451,
    "foliage_color": 1277707,
    "grass_color_modifier": "swamp",
    "music": {
      "sound": "planttech2:music_adventure",
      "min_delay": 1000,
      "max_delay": 6000,
      "replace_current_music": true
    }
  },
  "starts": [
    "planttech2:village_mushroom_red"
  ],
  "spawners": {},
  "spawn_costs": {},
  "carvers": {
    "air": [
      "minecraft:cave"
    ]
  },
  "features": []
}