{
   "surface_builder": {
    "config": {
      "top_material": {
        "Properties": {
          "snowy": "false"
        },
        "Name": "minecraft:grass_block"
      },
      "under_material": {
        "Name": "minecraft:dirt"
      },
      "underwater_material": {
        "Name": "minecraft:sand"
      }
    },
    "type": "default"
  },
  "depth": 0.05,
  "scale": 0.2,
  "temperature": 1.5,
  "downfall": 0.2,
  "precipitation": "rain",
  "category": "none",
  "player_spawn_friendly": true,
  "effects": {
    "sky_color": 16777215,
    "fog_color": 4492285,
    "water_color": 4159204,
    "water_fog_color": 329011,
    "grass_color": 1917984,
    "foliage_color": 14768987,
    "music": {
      "sound": "planttech2:music_adventure",
      "min_delay": 1000,
      "max_delay": 6000,
      "replace_current_music": true
    }
  },
  "starts": [
    "planttech2:village_mushroom_red"
  ],
  "spawners": {
    "monster": [
      {
        "type": "minecraft:slime",
        "weight": 5,
        "minCount": 2,
        "maxCount": 5
      }
    ],
    "creature": [
      {
        "type": "minecraft:llama",
        "weight": 2,
        "minCount": 1,
        "maxCount": 6
      }
    ]
  },
  "spawn_costs": {},
  "carvers": {},
  "features": [
    [],
    [],
    [],
    [],
    [],
    [],
    [],
    [],
    [
      "minecraft:trees_birch"
    ],
    []
  ]
}