{
    "parent": "item/generated",
    "textures": { "layer0": "planttech2:item/tablet"},
    "overrides": [
        { "predicate": {"damaged": 0, "damage": 0}, "model": "planttech2:item/tablet_closed2"},
        { "predicate": {"damaged": 0, "damage": 1}, "model": "planttech2:item/tablet_open2"}
    ]
}