{
	"__comment": "Designed by Veyezx with Cubik Studio - https://cubik.studio",
    "display": {
        "ground": {
            "rotation": [ 0, 0, 0 ],
            "translation": [ 0, 2, 0],
            "scale":[ 0.5, 0.5, 0.5 ]
        },
        "head": {
            "rotation": [ 0, 180, 0 ],
            "translation": [ 0, 13, 7],
            "scale":[ 1, 1, 1]
        },
        "thirdperson_righthand": {
            "rotation": [ 0, 0, 0 ],
            "translation": [ 0, 3, 1 ],
            "scale": [ 0.55, 0.55, 0.55 ]
        },
        "firstperson_righthand": {
            "rotation": [ 0, -180, 0 ],
            "translation": [ 1.13, 3.2, 1.13],
            "scale": [ 0.68, 0.68, 0.68 ]
        },
        "fixed": {
            "rotation": [ 0, 180, 0 ],
            "scale": [ 1, 1, 1 ]
        }
    },
	"textures": {
		"atlas": "planttech2:item/multitool"
	},
	"elements": [ 	 
		{
			"__comment": "middlestick",
			"from": [ 7.25, 8, 7.75 ],
			"to": [ 7.75, 15, 8.25 ],
			"faces": {
				"down": { "uv": [ 15, 15, 15.5, 15.5 ], "texture": "#atlas" },
				"up": { "uv": [ 15.5, 15, 16, 15.5 ], "texture": "#atlas" },
				"north": { "uv": [ 0.5, 12.5, 1, 16 ], "texture": "#atlas" },
				"south": { "uv": [ 0.5, 9, 1, 12.5 ], "texture": "#atlas" },
				"west": { "uv": [ 1, 12.5, 1.5, 16 ], "texture": "#atlas" },
				"east": { "uv": [ 1, 9, 1.5, 12.5 ], "texture": "#atlas" }
			}
		},
		{
			"__comment": "Rotatet",
			"from": [ 7.25, 14.25, 7 ],
			"to": [ 7.75, 15.25, 7.5 ],
			"rotation": { "origin": [ 7.75, 14.25, 7.5 ], "axis": "x", "angle": 45 },
			"faces": {
				"down": { "uv": [ 8.5, 14.5, 9, 15 ], "texture": "#atlas", "rotation": 180 },
				"up": { "uv": [ 8.5, 14, 9, 14.5 ], "texture": "#atlas", "rotation": 180 },
				"north": { "uv": [ 8.5, 12.5, 9, 13 ], "texture": "#atlas" },
				"south": { "uv": [ 8.5, 12, 9, 12.5 ], "texture": "#atlas" },
				"west": { "uv": [ 8.5, 11.5, 9, 12 ], "texture": "#atlas" },
				"east": { "uv": [ 8.5, 11, 9, 11.5 ], "texture": "#atlas" }
			}
		},
		{
			"__comment": "Rotatet1",
			"from": [ 7.25, 14.25, 8.5 ],
			"to": [ 7.75, 15.25, 9 ],
			"rotation": { "origin": [ 7.25, 14.25, 8.5 ], "axis": "x", "angle": -45 },
			"faces": {
				"down": { "uv": [ 11.5, 14.5, 12, 15 ], "texture": "#atlas" },
				"up": { "uv": [ 15, 14, 15.5, 14.5 ], "texture": "#atlas" },
				"north": { "uv": [ 15.5, 14, 16, 14.5 ], "texture": "#atlas" },
				"south": { "uv": [ 9.5, 13.5, 10, 14 ], "texture": "#atlas" },
				"west": { "uv": [ 9.5, 13, 10, 13.5 ], "texture": "#atlas" },
				"east": { "uv": [ 12, 13.5, 12.5, 14 ], "texture": "#atlas" }
			}
		},
		{
			"__comment": "Rotatet2",
			"from": [ 7.25, 10, 7.25 ],
			"to": [ 7.75, 10.5, 8.75 ],
			"faces": {
				"down": { "uv": [ 12.5, 13.5, 13, 14 ], "texture": "#atlas" },
				"up": { "uv": [ 13, 13.5, 13.5, 14 ], "texture": "#atlas" },
				"north": { "uv": [ 0, 8.5, 0.5, 9 ], "texture": "#atlas" },
				"south": { "uv": [ 0, 8, 0.5, 8.5 ], "texture": "#atlas" },
				"west": { "uv": [ 0.5, 8.5, 1, 9 ], "texture": "#atlas" },
				"east": { "uv": [ 0.5, 8, 1, 8.5 ], "texture": "#atlas" }
			}
		},
		{
			"__comment": "Rotatet3",
			"from": [ 7.25, 9.5, 8.5 ],
			"to": [ 7.75, 10, 9.25 ],
			"faces": {
				"down": { "uv": [ 1, 8.5, 1.5, 9 ], "texture": "#atlas" },
				"up": { "uv": [ 1, 8, 1.5, 8.5 ], "texture": "#atlas" },
				"north": { "uv": [ 1.5, 8.5, 2, 9 ], "texture": "#atlas" },
				"south": { "uv": [ 1.5, 8, 2, 8.5 ], "texture": "#atlas" },
				"west": { "uv": [ 2, 8.5, 2.5, 9 ], "texture": "#atlas" },
				"east": { "uv": [ 2, 8, 2.5, 8.5 ], "texture": "#atlas" }
			}
		},
		{
			"__comment": "Rotatet4",
			"from": [ 7.25, 9.5, 6.75 ],
			"to": [ 7.75, 10, 7.5 ],
			"faces": {
				"down": { "uv": [ 2.5, 8.5, 3, 9 ], "texture": "#atlas" },
				"up": { "uv": [ 2.5, 8, 3, 8.5 ], "texture": "#atlas" },
				"north": { "uv": [ 3, 8, 3.5, 8.5 ], "texture": "#atlas" },
				"south": { "uv": [ 3.5, 8, 4, 8.5 ], "texture": "#atlas" },
				"west": { "uv": [ 4, 8, 4.5, 8.5 ], "texture": "#atlas" },
				"east": { "uv": [ 4.5, 8, 5, 8.5 ], "texture": "#atlas" }
			}
		},
		{
			"__comment": "Rotatet5",
			"from": [ 7.25, 9.25, 5.75 ],
			"to": [ 7.75, 9.75, 7 ],
			"faces": {
				"down": { "uv": [ 5, 8, 5.5, 8.5 ], "texture": "#atlas" },
				"up": { "uv": [ 5.5, 8, 6, 8.5 ], "texture": "#atlas" },
				"north": { "uv": [ 6.5, 12.5, 7, 13 ], "texture": "#atlas" },
				"south": { "uv": [ 6.5, 12, 7, 12.5 ], "texture": "#atlas" },
				"west": { "uv": [ 6.5, 11.5, 7, 12 ], "texture": "#atlas" },
				"east": { "uv": [ 6.5, 11, 7, 11.5 ], "texture": "#atlas" }
			}
		},
		{
			"__comment": "Rotatet6",
			"from": [ 7.25, 9.25, 9 ],
			"to": [ 7.75, 9.75, 10.25 ],
			"faces": {
				"down": { "uv": [ 6.5, 10.5, 7, 11 ], "texture": "#atlas" },
				"up": { "uv": [ 6.5, 10, 7, 10.5 ], "texture": "#atlas" },
				"north": { "uv": [ 6.5, 9.5, 7, 10 ], "texture": "#atlas" },
				"south": { "uv": [ 6.5, 9, 7, 9.5 ], "texture": "#atlas" },
				"west": { "uv": [ 6.5, 8.5, 7, 9 ], "texture": "#atlas" },
				"east": { "uv": [ 6.5, 8, 7, 8.5 ], "texture": "#atlas" }
			}
		},
		{
			"__comment": "Rotatet7",
			"from": [ 7.25, 9.5, 5.25 ],
			"to": [ 7.75, 10, 6 ],
			"faces": {
				"down": { "uv": [ 7, 15.5, 7.5, 16 ], "texture": "#atlas" },
				"up": { "uv": [ 7, 15, 7.5, 15.5 ], "texture": "#atlas" },
				"north": { "uv": [ 7, 14.5, 7.5, 15 ], "texture": "#atlas" },
				"south": { "uv": [ 7, 14, 7.5, 14.5 ], "texture": "#atlas" },
				"west": { "uv": [ 7, 13.5, 7.5, 14 ], "texture": "#atlas" },
				"east": { "uv": [ 7, 13, 7.5, 13.5 ], "texture": "#atlas" }
			}
		},
		{
			"__comment": "Rotatet8",
			"from": [ 7.25, 9.5, 10 ],
			"to": [ 7.75, 10, 10.75 ],
			"faces": {
				"down": { "uv": [ 7, 12.5, 7.5, 13 ], "texture": "#atlas" },
				"up": { "uv": [ 7, 12, 7.5, 12.5 ], "texture": "#atlas" },
				"north": { "uv": [ 7, 11.5, 7.5, 12 ], "texture": "#atlas" },
				"south": { "uv": [ 7, 11, 7.5, 11.5 ], "texture": "#atlas" },
				"west": { "uv": [ 7, 10.5, 7.5, 11 ], "texture": "#atlas" },
				"east": { "uv": [ 7, 10, 7.5, 10.5 ], "texture": "#atlas" }
			}
		},
		{
			"__comment": "laser3",
			"from": [ 7.35, 9.75, 5.25 ],
			"to": [ 7.6, 15.1, 5.5 ],
			"rotation": { "origin": [ 7.35, 9.75, 5.25 ], "axis": "x", "angle": 22.5 },
			"faces": {
				"down": { "uv": [ 7, 9.5, 7.5, 10 ], "texture": "#atlas" },
				"up": { "uv": [ 7, 9, 7.5, 9.5 ], "texture": "#atlas" },
				"north": { "uv": [ 3, 8.5, 3.5, 11 ], "texture": "#atlas" },
				"south": { "uv": [ 3.5, 13.5, 4, 16 ], "texture": "#atlas" },
				"west": { "uv": [ 3.5, 11, 4, 13.5 ], "texture": "#atlas" },
				"east": { "uv": [ 3.5, 8.5, 4, 11 ], "texture": "#atlas" }
			}
		},
		{
			"__comment": "laser1",
			"from": [ 7.35, 9.75, 10.5 ],
			"to": [ 7.6, 15.1, 10.75 ],
			"rotation": { "origin": [ 7.35, 9.75, 10.5 ], "axis": "x", "angle": -22.5 },
			"faces": {
				"down": { "uv": [ 7, 8.5, 7.5, 9 ], "texture": "#atlas" },
				"up": { "uv": [ 7, 8, 7.5, 8.5 ], "texture": "#atlas" },
				"north": { "uv": [ 4, 13.5, 4.5, 16 ], "texture": "#atlas" },
				"south": { "uv": [ 4, 11, 4.5, 13.5 ], "texture": "#atlas" },
				"west": { "uv": [ 5, 13.5, 5.5, 16 ], "texture": "#atlas" },
				"east": { "uv": [ 5, 11, 5.5, 13.5 ], "texture": "#atlas" }
			}
		},
		{
			"__comment": "laser2",
			"from": [ 10, 9.75, 8 ],
			"to": [ 10.25, 15.1, 8.25 ],
			"rotation": { "origin": [ 10, 9.75, 8 ], "axis": "z", "angle": 22.5 },
			"faces": {
				"down": { "uv": [ 7.5, 15.5, 8, 16 ], "texture": "#atlas" },
				"up": { "uv": [ 7.5, 15, 8, 15.5 ], "texture": "#atlas" },
				"north": { "uv": [ 5, 8.5, 5.5, 11 ], "texture": "#atlas" },
				"south": { "uv": [ 5.5, 13.5, 6, 16 ], "texture": "#atlas" },
				"west": { "uv": [ 3, 13.5, 3.5, 16 ], "texture": "#atlas" },
				"east": { "uv": [ 3, 11, 3.5, 13.5 ], "texture": "#atlas" }
			}
		},
		{
			"__comment": "Rotatet9",
			"from": [ 7.25, 8, 7.75 ],
			"to": [ 7.75, 15, 8.25 ],
			"faces": {
				"down": { "uv": [ 7.5, 14.5, 8, 15 ], "texture": "#atlas" },
				"up": { "uv": [ 7.5, 14, 8, 14.5 ], "texture": "#atlas" },
				"north": { "uv": [ 1.5, 12.5, 2, 16 ], "texture": "#atlas" },
				"south": { "uv": [ 0, 9, 0.5, 12.5 ], "texture": "#atlas" },
				"west": { "uv": [ 0, 12.5, 0.5, 16 ], "texture": "#atlas" },
				"east": { "uv": [ 1.5, 9, 2, 12.5 ], "texture": "#atlas" }
			}
		},
		{
			"__comment": "Rotatet10",
			"from": [ 7.25, 14.25, 7 ],
			"to": [ 7.75, 15.25, 7.5 ],
			"rotation": { "origin": [ 7.75, 14.25, 7.5 ], "axis": "x", "angle": 45 },
			"faces": {
				"down": { "uv": [ 7.5, 13.5, 8, 14 ], "texture": "#atlas", "rotation": 180 },
				"up": { "uv": [ 7.5, 13, 8, 13.5 ], "texture": "#atlas", "rotation": 180 },
				"north": { "uv": [ 7.5, 12.5, 8, 13 ], "texture": "#atlas" },
				"south": { "uv": [ 7.5, 12, 8, 12.5 ], "texture": "#atlas" },
				"west": { "uv": [ 7.5, 11.5, 8, 12 ], "texture": "#atlas" },
				"east": { "uv": [ 7.5, 11, 8, 11.5 ], "texture": "#atlas" }
			}
		},
		{
			"__comment": "Rotatet11",
			"from": [ 7.25, 14.25, 8.5 ],
			"to": [ 7.75, 15.25, 9 ],
			"rotation": { "origin": [ 7.25, 14.25, 8.5 ], "axis": "x", "angle": -45 },
			"faces": {
				"down": { "uv": [ 7.5, 10.5, 8, 11 ], "texture": "#atlas" },
				"up": { "uv": [ 7.5, 10, 8, 10.5 ], "texture": "#atlas" },
				"north": { "uv": [ 7.5, 9.5, 8, 10 ], "texture": "#atlas" },
				"south": { "uv": [ 7.5, 9, 8, 9.5 ], "texture": "#atlas" },
				"west": { "uv": [ 7.5, 8.5, 8, 9 ], "texture": "#atlas" },
				"east": { "uv": [ 7.5, 8, 8, 8.5 ], "texture": "#atlas" }
			}
		},
		{
			"__comment": "Rotatet12",
			"from": [ 7.25, 10, 7.25 ],
			"to": [ 7.75, 10.5, 8.75 ],
			"faces": {
				"down": { "uv": [ 8, 15.5, 8.5, 16 ], "texture": "#atlas" },
				"up": { "uv": [ 8.5, 15.5, 9, 16 ], "texture": "#atlas" },
				"north": { "uv": [ 9, 15.5, 9.5, 16 ], "texture": "#atlas" },
				"south": { "uv": [ 9.5, 15.5, 10, 16 ], "texture": "#atlas" },
				"west": { "uv": [ 10, 15.5, 10.5, 16 ], "texture": "#atlas" },
				"east": { "uv": [ 10.5, 15.5, 11, 16 ], "texture": "#atlas" }
			}
		},
		{
			"__comment": "Rotatet13",
			"from": [ 7.25, 9.5, 8.5 ],
			"to": [ 7.75, 10, 9.25 ],
			"faces": {
				"down": { "uv": [ 11, 15.5, 11.5, 16 ], "texture": "#atlas" },
				"up": { "uv": [ 11.5, 15.5, 12, 16 ], "texture": "#atlas" },
				"north": { "uv": [ 12, 15.5, 12.5, 16 ], "texture": "#atlas" },
				"south": { "uv": [ 12.5, 15.5, 13, 16 ], "texture": "#atlas" },
				"west": { "uv": [ 13, 15.5, 13.5, 16 ], "texture": "#atlas" },
				"east": { "uv": [ 13.5, 15.5, 14, 16 ], "texture": "#atlas" }
			}
		},
		{
			"__comment": "Rotatet14",
			"from": [ 7.25, 9.5, 6.75 ],
			"to": [ 7.75, 10, 7.5 ],
			"faces": {
				"down": { "uv": [ 14, 15.5, 14.5, 16 ], "texture": "#atlas" },
				"up": { "uv": [ 14.5, 15.5, 15, 16 ], "texture": "#atlas" },
				"north": { "uv": [ 15, 15.5, 15.5, 16 ], "texture": "#atlas" },
				"south": { "uv": [ 15.5, 15.5, 16, 16 ], "texture": "#atlas" },
				"west": { "uv": [ 8, 15, 8.5, 15.5 ], "texture": "#atlas" },
				"east": { "uv": [ 8, 14.5, 8.5, 15 ], "texture": "#atlas" }
			}
		},
		{
			"__comment": "Rotatet15",
			"from": [ 7.25, 9.25, 5.75 ],
			"to": [ 7.75, 9.75, 7 ],
			"faces": {
				"down": { "uv": [ 8, 14, 8.5, 14.5 ], "texture": "#atlas" },
				"up": { "uv": [ 8, 13.5, 8.5, 14 ], "texture": "#atlas" },
				"north": { "uv": [ 8, 13, 8.5, 13.5 ], "texture": "#atlas" },
				"south": { "uv": [ 8, 12.5, 8.5, 13 ], "texture": "#atlas" },
				"west": { "uv": [ 8, 12, 8.5, 12.5 ], "texture": "#atlas" },
				"east": { "uv": [ 8, 11.5, 8.5, 12 ], "texture": "#atlas" }
			}
		},
		{
			"__comment": "Rotatet16",
			"from": [ 7.25, 9.25, 9 ],
			"to": [ 7.75, 9.75, 10.25 ],
			"faces": {
				"down": { "uv": [ 8, 11, 8.5, 11.5 ], "texture": "#atlas" },
				"up": { "uv": [ 8, 10.5, 8.5, 11 ], "texture": "#atlas" },
				"north": { "uv": [ 8, 10, 8.5, 10.5 ], "texture": "#atlas" },
				"south": { "uv": [ 8, 9.5, 8.5, 10 ], "texture": "#atlas" },
				"west": { "uv": [ 8, 9, 8.5, 9.5 ], "texture": "#atlas" },
				"east": { "uv": [ 8, 8.5, 8.5, 9 ], "texture": "#atlas" }
			}
		},
		{
			"__comment": "Rotatet17",
			"from": [ 7.25, 9.5, 5.25 ],
			"to": [ 7.75, 10, 6 ],
			"faces": {
				"down": { "uv": [ 8, 8, 8.5, 8.5 ], "texture": "#atlas" },
				"up": { "uv": [ 8.5, 15, 9, 15.5 ], "texture": "#atlas" },
				"north": { "uv": [ 9, 15, 9.5, 15.5 ], "texture": "#atlas" },
				"south": { "uv": [ 9.5, 15, 10, 15.5 ], "texture": "#atlas" },
				"west": { "uv": [ 10, 15, 10.5, 15.5 ], "texture": "#atlas" },
				"east": { "uv": [ 10.5, 15, 11, 15.5 ], "texture": "#atlas" }
			}
		},
		{
			"__comment": "Rotatet18",
			"from": [ 7.25, 9.5, 10 ],
			"to": [ 7.75, 10, 10.75 ],
			"faces": {
				"down": { "uv": [ 11, 15, 11.5, 15.5 ], "texture": "#atlas" },
				"up": { "uv": [ 11.5, 15, 12, 15.5 ], "texture": "#atlas" },
				"north": { "uv": [ 12, 15, 12.5, 15.5 ], "texture": "#atlas" },
				"south": { "uv": [ 12.5, 15, 13, 15.5 ], "texture": "#atlas" },
				"west": { "uv": [ 13, 15, 13.5, 15.5 ], "texture": "#atlas" },
				"east": { "uv": [ 13.5, 15, 14, 15.5 ], "texture": "#atlas" }
			}
		},
		{
			"__comment": "Rotatet19",
			"from": [ 7.35, 9.75, 5.25 ],
			"to": [ 7.6, 15.1, 5.5 ],
			"rotation": { "origin": [ 7.35, 9.75, 5.25 ], "axis": "x", "angle": 22.5 },
			"faces": {
				"down": { "uv": [ 14, 15, 14.5, 15.5 ], "texture": "#atlas" },
				"up": { "uv": [ 14.5, 15, 15, 15.5 ], "texture": "#atlas" },
				"north": { "uv": [ 4, 8.5, 4.5, 11 ], "texture": "#atlas" },
				"south": { "uv": [ 4.5, 13.5, 5, 16 ], "texture": "#atlas" },
				"west": { "uv": [ 4.5, 11, 5, 13.5 ], "texture": "#atlas" },
				"east": { "uv": [ 4.5, 8.5, 5, 11 ], "texture": "#atlas" }
			}
		},
		{
			"__comment": "Rotatet21",
			"from": [ 6.75, 10, 7.75 ],
			"to": [ 8.25, 10.5, 8.25 ],
			"faces": {
				"down": { "uv": [ 8.5, 10.5, 9, 11 ], "texture": "#atlas" },
				"up": { "uv": [ 8.5, 10, 9, 10.5 ], "texture": "#atlas" },
				"north": { "uv": [ 8.5, 9.5, 9, 10 ], "texture": "#atlas" },
				"south": { "uv": [ 8.5, 9, 9, 9.5 ], "texture": "#atlas" },
				"west": { "uv": [ 8.5, 8.5, 9, 9 ], "texture": "#atlas" },
				"east": { "uv": [ 8.5, 8, 9, 8.5 ], "texture": "#atlas" }
			}
		},
		{
			"__comment": "Rotatet22",
			"from": [ 8, 9.5, 7.75 ],
			"to": [ 8.75, 10, 8.25 ],
			"faces": {
				"down": { "uv": [ 9, 14.5, 9.5, 15 ], "texture": "#atlas" },
				"up": { "uv": [ 9.5, 14.5, 10, 15 ], "texture": "#atlas" },
				"north": { "uv": [ 10, 14.5, 10.5, 15 ], "texture": "#atlas" },
				"south": { "uv": [ 10.5, 14.5, 11, 15 ], "texture": "#atlas" },
				"west": { "uv": [ 11, 14.5, 11.5, 15 ], "texture": "#atlas" },
				"east": { "uv": [ 12, 14, 12.5, 14.5 ], "texture": "#atlas" }
			}
		},
		{
			"__comment": "Rotatet23",
			"from": [ 6.25, 9.5, 7.75 ],
			"to": [ 7, 10, 8.25 ],
			"faces": {
				"down": { "uv": [ 12, 14.5, 12.5, 15 ], "texture": "#atlas" },
				"up": { "uv": [ 12.5, 14.5, 13, 15 ], "texture": "#atlas" },
				"north": { "uv": [ 13, 14.5, 13.5, 15 ], "texture": "#atlas" },
				"south": { "uv": [ 13.5, 14.5, 14, 15 ], "texture": "#atlas" },
				"west": { "uv": [ 14, 14.5, 14.5, 15 ], "texture": "#atlas" },
				"east": { "uv": [ 14.5, 14.5, 15, 15 ], "texture": "#atlas" }
			}
		},
		{
			"__comment": "Rotatet24",
			"from": [ 8.5, 9, 7.75 ],
			"to": [ 9.75, 9.5, 8.25 ],
			"faces": {
				"down": { "uv": [ 15, 14.5, 15.5, 15 ], "texture": "#atlas" },
				"up": { "uv": [ 15.5, 14.5, 16, 15 ], "texture": "#atlas" },
				"north": { "uv": [ 9, 14, 9.5, 14.5 ], "texture": "#atlas" },
				"south": { "uv": [ 9, 13.5, 9.5, 14 ], "texture": "#atlas" },
				"west": { "uv": [ 9, 13, 9.5, 13.5 ], "texture": "#atlas" },
				"east": { "uv": [ 9, 12.5, 9.5, 13 ], "texture": "#atlas" }
			}
		},
		{
			"__comment": "Rotatet25",
			"from": [ 5.25, 9, 7.75 ],
			"to": [ 6.5, 9.5, 8.25 ],
			"faces": {
				"down": { "uv": [ 9, 12, 9.5, 12.5 ], "texture": "#atlas" },
				"up": { "uv": [ 9, 11.5, 9.5, 12 ], "texture": "#atlas" },
				"north": { "uv": [ 9, 11, 9.5, 11.5 ], "texture": "#atlas" },
				"south": { "uv": [ 9, 10.5, 9.5, 11 ], "texture": "#atlas" },
				"west": { "uv": [ 9, 10, 9.5, 10.5 ], "texture": "#atlas" },
				"east": { "uv": [ 9, 9.5, 9.5, 10 ], "texture": "#atlas" }
			}
		},
		{
			"__comment": "Rotatet26",
			"from": [ 9.5, 9.5, 7.75 ],
			"to": [ 10.25, 10, 8.25 ],
			"faces": {
				"down": { "uv": [ 9, 9, 9.5, 9.5 ], "texture": "#atlas" },
				"up": { "uv": [ 9, 8.5, 9.5, 9 ], "texture": "#atlas" },
				"north": { "uv": [ 9, 8, 9.5, 8.5 ], "texture": "#atlas" },
				"south": { "uv": [ 9.5, 14, 10, 14.5 ], "texture": "#atlas" },
				"west": { "uv": [ 10, 14, 10.5, 14.5 ], "texture": "#atlas" },
				"east": { "uv": [ 10.5, 14, 11, 14.5 ], "texture": "#atlas" }
			}
		},
		{
			"__comment": "Rotatet27",
			"from": [ 4.75, 9.5, 7.75 ],
			"to": [ 5.5, 10, 8.25 ],
			"faces": {
				"down": { "uv": [ 11, 14, 11.5, 14.5 ], "texture": "#atlas" },
				"up": { "uv": [ 11.5, 14, 12, 14.5 ], "texture": "#atlas" },
				"north": { "uv": [ 13.5, 13.5, 14, 14 ], "texture": "#atlas" },
				"south": { "uv": [ 12.5, 14, 13, 14.5 ], "texture": "#atlas" },
				"west": { "uv": [ 13, 14, 13.5, 14.5 ], "texture": "#atlas" },
				"east": { "uv": [ 13.5, 14, 14, 14.5 ], "texture": "#atlas" }
			}
		},
		{
			"__comment": "laser4",
			"from": [ 4.75, 9.75, 7.75 ],
			"to": [ 5, 15.1, 8 ],
			"rotation": { "origin": [ 4.75, 9.75, 7.75 ], "axis": "z", "angle": -22.5 },
			"faces": {
				"down": { "uv": [ 14, 14, 14.5, 14.5 ], "texture": "#atlas" },
				"up": { "uv": [ 14.5, 14, 15, 14.5 ], "texture": "#atlas" },
				"north": { "uv": [ 5.5, 11, 6, 13.5 ], "texture": "#atlas" },
				"south": { "uv": [ 5.5, 8.5, 6, 11 ], "texture": "#atlas" },
				"west": { "uv": [ 6, 13.5, 6.5, 16 ], "texture": "#atlas" },
				"east": { "uv": [ 6, 11, 6.5, 13.5 ], "texture": "#atlas" }
			}
		},
		{
			"__comment": "Rotatet28",
			"from": [ 7.25, 15.25, 7.75 ],
			"to": [ 8.25, 15.75, 8.25 ],
			"rotation": { "origin": [ 7.25, 15.25, 7.75 ], "axis": "z", "angle": -45 },
			"faces": {
				"down": { "uv": [ 9.5, 12.5, 10, 13 ], "texture": "#atlas" },
				"up": { "uv": [ 9.5, 12, 10, 12.5 ], "texture": "#atlas" },
				"north": { "uv": [ 9.5, 11.5, 10, 12 ], "texture": "#atlas" },
				"south": { "uv": [ 9.5, 11, 10, 11.5 ], "texture": "#atlas" },
				"west": { "uv": [ 9.5, 10.5, 10, 11 ], "texture": "#atlas" },
				"east": { "uv": [ 9.5, 10, 10, 10.5 ], "texture": "#atlas" }
			}
		},
		{
			"__comment": "Rotatet29",
			"from": [ 6.5, 14.5, 7.75 ],
			"to": [ 7, 15.5, 8.25 ],
			"rotation": { "origin": [ 7, 14.5, 7.75 ], "axis": "z", "angle": -45 },
			"faces": {
				"down": { "uv": [ 9.5, 9.5, 10, 10 ], "texture": "#atlas", "rotation": 90 },
				"up": { "uv": [ 9.5, 9, 10, 9.5 ], "texture": "#atlas", "rotation": 270 },
				"north": { "uv": [ 9.5, 8.5, 10, 9 ], "texture": "#atlas", "rotation": 270 },
				"south": { "uv": [ 9.5, 8, 10, 8.5 ], "texture": "#atlas", "rotation": 90 },
				"west": { "uv": [ 10, 13.5, 10.5, 14 ], "texture": "#atlas", "rotation": 90 },
				"east": { "uv": [ 10.5, 13.5, 11, 14 ], "texture": "#atlas", "rotation": 270 }
			}
		},
		{
			"__comment": "Box43",
			"from": [ 7, 5.5, 7.5 ],
			"to": [ 8, 8.5, 8.5 ],
			"faces": {
				"down": { "uv": [ 11, 13.5, 11.5, 14 ], "texture": "#atlas" },
				"up": { "uv": [ 11.5, 13.5, 12, 14 ], "texture": "#atlas" },
				"north": { "uv": [ 6, 8, 6.5, 9.5 ], "texture": "#atlas" },
				"south": { "uv": [ 6.5, 14.5, 7, 16 ], "texture": "#atlas" },
				"west": { "uv": [ 6.5, 13, 7, 14.5 ], "texture": "#atlas" },
				"east": { "uv": [ 6, 9.5, 6.5, 11 ], "texture": "#atlas" }
			}
		},
		{
			"name": "Base",
			"from": [7.5, 5.9, 7.5],
			"to": [8.5, 8.9, 8.5],
			"faces": {
				"north": {"uv": [4, 0, 5, 3], "texture": "#atlas"},
				"east": {"uv": [4, 0, 5, 3], "texture": "#atlas"},
				"south": {"uv": [4, 0, 5, 3], "texture": "#atlas"},
				"west": {"uv": [4, 0, 5, 3], "texture": "#atlas"},
				"up": {"uv": [4, 0, 5, 2], "texture": "#atlas"},
				"down": {"uv": [4, 0, 5, 2], "texture": "#atlas"}
			}
		},
		{
			"name": "Base",
			"from": [7.5, 5.9, 7.5],
			"to": [8.5, 8.9, 8.5],
			"rotation": {"angle": 22.5, "axis": "y", "origin": [8, 7.5, 8]},
			"faces": {
				"north": {"uv": [4, 0, 5, 3], "texture": "#atlas"},
				"east": {"uv": [4, 0, 5, 3], "texture": "#atlas"},
				"south": {"uv": [4, 0, 5, 3], "texture": "#atlas"},
				"west": {"uv": [4, 0, 5, 3], "texture": "#atlas"},
				"up": {"uv": [4, 0, 5, 2], "texture": "#atlas"},
				"down": {"uv": [4, 0, 5, 2], "texture": "#atlas"}
			}
		},
		{
			"name": "Base",
			"from": [7.5, 5.9, 7.5],
			"to": [8.5, 8.9, 8.5],
			"rotation": {"angle": 45, "axis": "y", "origin": [8, 7.5, 8]},
			"faces": {
				"north": {"uv": [4, 0, 5, 3], "texture": "#atlas"},
				"east": {"uv": [4, 0, 5, 3], "texture": "#atlas"},
				"south": {"uv": [4, 0, 5, 3], "texture": "#atlas"},
				"west": {"uv": [4, 0, 5, 3], "texture": "#atlas"},
				"up": {"uv": [4, 0, 5, 2], "texture": "#atlas"},
				"down": {"uv": [4, 0, 5, 2], "texture": "#atlas"}
			}
		},
		{
			"name": "Base",
			"from": [7.5, 5.9, 7.5],
			"to": [8.5, 8.9, 8.5],
			"rotation": {"angle": -22.5, "axis": "y", "origin": [8, 7.5, 8]},
			"faces": {
				"north": {"uv": [4, 0, 5, 3], "texture": "#atlas"},
				"east": {"uv": [4, 0, 5, 3], "texture": "#atlas"},
				"south": {"uv": [4, 0, 5, 3], "texture": "#atlas"},
				"west": {"uv": [4, 0, 5, 3], "texture": "#atlas"},
				"up": {"uv": [4, 0, 5, 2], "rotation": 270, "texture": "#atlas"},
				"down": {"uv": [4, 0, 5, 2], "rotation": 90, "texture": "#atlas"}
			}
		}
	]
}