{
	"__comment": "Designed by Andrew0030 with Cubik Studio - https://cubik.studio",
	"textures": {
		"particle": "planttech2:item/tablet",
		"texture": "planttech2:item/tablet"
	},
	"elements": [ 	 
		{
			"__comment": "Box1",
			"from": [ 0.5, 0, 5.5 ],
			"to": [ 1.5, 1, 10.5 ],
			"faces": {
				"down": { "uv": [ 2, 3, 3, 8 ], "texture": "#texture" },
				"up": { "uv": [ 2, 0, 3, 5 ], "texture": "#texture" },
				"north": { "uv": [ 2, 8, 3, 9 ], "texture": "#texture" },
				"south": { "uv": [ 2, 8, 3, 9 ], "texture": "#texture" },
				"west": { "uv": [ 2, 8, 3, 9 ], "texture": "#texture" },
				"east": { "uv": [ 2, 8, 3, 9 ], "texture": "#texture" }
			}
		},
		{
			"__comment": "Box2",
			"from": [ 2, 0, 4 ],
			"to": [ 6, 1, 5 ],
			"faces": {
				"down": { "uv": [ 2, 11, 3, 12 ], "texture": "#texture" },
				"up": { "uv": [ 2, 4, 3, 5 ], "texture": "#texture" },
				"north": { "uv": [ 2, 8, 3, 9 ], "texture": "#texture" },
				"south": { "uv": [ 2, 8, 3, 9 ], "texture": "#texture" },
				"west": { "uv": [ 2, 8, 3, 9 ], "texture": "#texture" },
				"east": { "uv": [ 2, 8, 3, 9 ], "texture": "#texture" }
			}
		},
		{
			"__comment": "Box3",
			"from": [ 2, 0, 11 ],
			"to": [ 6, 1, 12 ],
			"faces": {
				"down": { "uv": [ 2, 4, 3, 5 ], "texture": "#texture" },
				"up": { "uv": [ 2, 11, 3, 12 ], "texture": "#texture" },
				"north": { "uv": [ 2, 8, 3, 9 ], "texture": "#texture" },
				"south": { "uv": [ 2, 8, 3, 9 ], "texture": "#texture" },
				"west": { "uv": [ 2, 8, 3, 9 ], "texture": "#texture" },
				"east": { "uv": [ 2, 8, 3, 9 ], "texture": "#texture" }
			}
		},
		{
			"__comment": "Box4",
			"from": [ 2, 0.001, 4 ],
			"to": [ 3, 1.001, 6.12 ],
			"rotation": { "origin": [ 2, 0, 4 ], "axis": "y", "angle": -45 },
			"faces": {
				"down": { "uv": [ 2, 9, 3, 10.5 ], "texture": "#texture" },
				"up": { "uv": [ 2, 5.5, 3, 7 ], "texture": "#texture" },
				"north": { "uv": [ 2, 8, 3, 9 ], "texture": "#texture" },
				"south": { "uv": [ 2, 8, 3, 9 ], "texture": "#texture" },
				"west": { "uv": [ 2, 8, 3, 9 ], "texture": "#texture" },
				"east": { "uv": [ 2, 8, 3, 9 ], "texture": "#texture" }
			}
		},
		{
			"__comment": "Box5",
			"from": [ 2, 0.001, 9.878699 ],
			"to": [ 3, 1.001, 11.9987 ],
			"rotation": { "origin": [ 2, 0, 12 ], "axis": "y", "angle": 45 },
			"faces": {
				"down": { "uv": [ 2, 3, 3, 4 ], "texture": "#texture", "rotation": 90 },
				"up": { "uv": [ 2, 9.5, 3, 10.5 ], "texture": "#texture", "rotation": 270 },
				"north": { "uv": [ 2, 8, 3, 9 ], "texture": "#texture" },
				"south": { "uv": [ 2, 8, 3, 9 ], "texture": "#texture" },
				"west": { "uv": [ 2, 8, 3, 9 ], "texture": "#texture" },
				"east": { "uv": [ 2, 8, 3, 9 ], "texture": "#texture" }
			}
		},
		{
			"__comment": "Box6",
			"from": [ 5.5, 0, 5 ],
			"to": [ 6, 1, 11 ],
			"faces": {
				"down": { "uv": [ 2.5, 2.5, 3, 8.5 ], "texture": "#texture" },
				"up": { "uv": [ 2.5, 3.5, 3, 9.5 ], "texture": "#texture" },
				"north": { "uv": [ 2, 8, 3, 9 ], "texture": "#texture" },
				"south": { "uv": [ 2, 8, 3, 9 ], "texture": "#texture" },
				"west": { "uv": [ 2, 8, 3, 9 ], "texture": "#texture" },
				"east": { "uv": [ 2, 8, 3, 9 ], "texture": "#texture" }
			}
		},
		{
			"__comment": "Box8",
			"from": [ 1.5, 0.4, 5 ],
			"to": [ 5.5, 0.65, 11 ],
			"faces": {
				"down": { "uv": [ 3, 0, 11, 12 ], "texture": "#texture" },
				"up": { "uv": [ 3, 0, 11.5, 12 ], "texture": "#texture" },
				"north": { "uv": [ 10.5, 15.25, 14.5, 15.5 ], "texture": "#texture" },
				"south": { "uv": [ 1.5, 15.25, 5.5, 15.5 ], "texture": "#texture" },
				"west": { "uv": [ 5, 15.25, 11, 15.5 ], "texture": "#texture" },
				"east": { "uv": [ 5, 15.25, 11, 15.5 ], "texture": "#texture" }
			}
		},
		{
			"__comment": "Box9",
			"from": [ 6, 0.25, 4.25 ],
			"to": [ 6.5, 0.75, 4.75 ],
			"faces": {
				"down": { "uv": [ 2, 9.5, 2.5, 10 ], "texture": "#texture" },
				"up": { "uv": [ 2.5, 3.5, 3, 4 ], "texture": "#texture" },
				"north": { "uv": [ 2, 8, 3, 9 ], "texture": "#texture" },
				"south": { "uv": [ 2, 8, 3, 9 ], "texture": "#texture" },
				"west": { "uv": [ 2, 8, 3, 9 ], "texture": "#texture" },
				"east": { "uv": [ 2, 8, 3, 9 ], "texture": "#texture" }
			}
		},
		{
			"__comment": "Box10",
			"from": [ 6, 0.25, 11.25 ],
			"to": [ 6.5, 0.75, 11.75 ],
			"faces": {
				"down": { "uv": [ 2, 1.5, 2.5, 2 ], "texture": "#texture" },
				"up": { "uv": [ 2.5, 9.5, 3, 10 ], "texture": "#texture" },
				"north": { "uv": [ 2, 8, 3, 9 ], "texture": "#texture" },
				"south": { "uv": [ 2, 8, 3, 9 ], "texture": "#texture" },
				"west": { "uv": [ 2, 8, 3, 9 ], "texture": "#texture" },
				"east": { "uv": [ 2, 8, 3, 9 ], "texture": "#texture" }
			}
		},
		{
			"__comment": "Box11",
			"from": [ 6.5, 0.25, 4.7292 ],
			"to": [ 7, 0.75, 11.2292 ],
			"faces": {
				"down": { "uv": [ 2.5, 2.5, 3, 9 ], "texture": "#texture" },
				"up": { "uv": [ 2.5, 2, 3, 8.5 ], "texture": "#texture" },
				"north": { "uv": [ 2, 8, 3, 9 ], "texture": "#texture" },
				"south": { "uv": [ 2, 8, 3, 9 ], "texture": "#texture" },
				"west": { "uv": [ 2, 8, 3, 9 ], "texture": "#texture" },
				"east": { "uv": [ 2, 8, 3, 9 ], "texture": "#texture" }
			}
		},
		{
			"__comment": "Box12",
			"from": [ 6.6768, 0.251, 4.1768 ],
			"to": [ 7.3568, 0.751, 4.6768 ],
			"rotation": { "origin": [ 6.5, 0, 4 ], "axis": "y", "angle": -45 },
			"faces": {
				"down": { "uv": [ 2.5, 3, 3, 3.5 ], "texture": "#texture" },
				"up": { "uv": [ 2.5, 4.5, 3, 5 ], "texture": "#texture" },
				"north": { "uv": [ 2, 8, 3, 9 ], "texture": "#texture" },
				"south": { "uv": [ 2, 8, 3, 9 ], "texture": "#texture" },
				"west": { "uv": [ 2, 8, 3, 9 ], "texture": "#texture" },
				"east": { "uv": [ 2, 8, 3, 9 ], "texture": "#texture" }
			}
		},
		{
			"__comment": "Box14",
			"from": [ 6.6697, 0.251, 11.3212 ],
			"to": [ 7.3897, 0.751, 11.8212 ],
			"rotation": { "origin": [ 6.5, 0, 12 ], "axis": "y", "angle": 45 },
			"faces": {
				"down": { "uv": [ 2, 3, 2.5, 3.5 ], "texture": "#texture", "rotation": 90 },
				"up": { "uv": [ 2.5, 8.5, 3, 9 ], "texture": "#texture", "rotation": 270 },
				"north": { "uv": [ 2, 8, 3, 9 ], "texture": "#texture" },
				"south": { "uv": [ 2, 8, 3, 9 ], "texture": "#texture" },
				"west": { "uv": [ 2, 8, 3, 9 ], "texture": "#texture" },
				"east": { "uv": [ 2, 8, 3, 9 ], "texture": "#texture" }
			}
		},
		{
			"__comment": "Box15",
			"from": [ 6, 0.3, 4.5 ],
			"to": [ 6.5, 0.55, 11.5 ],
			"faces": {
				"down": { "uv": [ 3, 0, 4, 10.5 ], "texture": "#texture", "rotation": 180 },
				"up": { "uv": [ 3, 0, 4, 10.5 ], "texture": "#texture", "rotation": 180 },
				"north": { "uv": [ 1, 15.75, 10, 16 ], "texture": "#texture" },
				"south": { "uv": [ 6, 15.75, 15, 16 ], "texture": "#texture" },
				"west": { "uv": [ 4.5, 15.75, 11.5, 16 ], "texture": "#texture" },
				"east": { "uv": [ 4.5, 15.75, 11.5, 16 ], "texture": "#texture" }
			}
		}
	],
	"display": {
		"thirdperson_righthand": {
			"rotation":  [ 116, -22, 23 ],
			"translation":  [ 0.6979, -0.282, 6.2608 ],
			"scale":  [ 0.7, 0.7, 0.7 ]
		},
		"thirdperson_lefthand": {
			"rotation":  [ 116, -22, 23 ],
			"translation":  [ -3.477, 3.1962, 5.5652 ],
			"scale":  [ 0.7, 0.7, 0.7 ]
		},
		"firstperson_righthand": {
			"rotation":  [ 96, -1, 8 ],
			"translation":  [ 5.3062, 3.1994, 3.2169 ],
			"scale":  [ 0.68, 0.68, 0.68 ]
		},
		"firstperson_lefthand": {
			"rotation":  [ 96, -1, 8 ],
			"translation":  [ -0.954, 3.1994, 3.2169 ],
			"scale":  [ 0.68, 0.68, 0.68 ]
		},
		"gui": {
			"rotation":  [ 74, 20, -22 ],
			"translation":  [ 5.5652, 2.0869, 6.9565 ],
			"scale":  [ 0.9, 0.9, 0.9 ]
		},
		"head": {
			"rotation":  [ 90, 90, 0 ]
		},
		"ground": {
			"translation":  [ 0, 2, 0 ],
			"scale":  [ 0.5, 0.5, 0.5 ]
		},
		"fixed": {
			"rotation":  [ 90, 180, 0 ],
			"translation":  [ 0, 0, 7.6521 ]
		}
	}
}