{
    "__comment": "Designed by Andrew0030 with Cubik Studio - https://cubik.studio",
    "textures": {
        "particle": "planttech2:item/wrench",
        "texture": "planttech2:item/wrench"
    },
    "elements": [    
        {
            "__comment": "Box2",
            "from": [ 7.25, 3.5, 7.25 ],
            "to": [ 8.75, 4, 8.75 ],
            "faces": {
                "down": { "uv": [ 0, 0, 1, 1 ], "texture": "#texture" },
                "up": { "uv": [ 0, 0, 1, 1 ], "texture": "#texture" },
                "north": { "uv": [ 0, 0, 1, 1 ], "texture": "#texture" },
                "south": { "uv": [ 0, 0, 1, 1 ], "texture": "#texture" },
                "west": { "uv": [ 0, 0, 1, 1 ], "texture": "#texture" },
                "east": { "uv": [ 0, 0, 1, 1 ], "texture": "#texture" }
            }
        },
        {
            "__comment": "Box3",
            "from": [ 7.5, 0.8, 7.6 ],
            "to": [ 8.5, 9.8, 8.4 ],
            "faces": {
                "down": { "uv": [ 1, 0, 2, 1 ], "texture": "#texture" },
                "up": { "uv": [ 1, 0, 2, 1 ], "texture": "#texture" },
                "north": { "uv": [ 1, 0, 2, 1 ], "texture": "#texture" },
                "south": { "uv": [ 1, 0, 2, 1 ], "texture": "#texture" },
                "west": { "uv": [ 1, 0, 2, 1 ], "texture": "#texture" },
                "east": { "uv": [ 1, 0, 2, 1 ], "texture": "#texture" }
            }
        },
        {
            "__comment": "Box5",
            "from": [ 7, 9, 7.5 ],
            "to": [ 8, 10.5, 8.5 ],
            "rotation": { "origin": [ 7, 9, 7.5 ], "axis": "z", "angle": 45 },
            "faces": {
                "down": { "uv": [ 0, 0, 1, 1 ], "texture": "#texture" },
                "up": { "uv": [ 0, 0, 1, 1 ], "texture": "#texture" },
                "north": { "uv": [ 0, 0, 1, 1 ], "texture": "#texture" },
                "south": { "uv": [ 0, 0, 1, 1 ], "texture": "#texture" },
                "west": { "uv": [ 0, 0, 1, 1 ], "texture": "#texture" },
                "east": { "uv": [ 0, 0, 1, 1 ], "texture": "#texture" }
            }
        },
        {
            "__comment": "Box6",
            "from": [ 7, 9, 7.5 ],
            "to": [ 9, 10, 8.5 ],
            "faces": {
                "down": { "uv": [ 1, 1, 0, 0 ], "texture": "#texture", "rotation": 90 },
                "up": { "uv": [ 0, 0, 1, 1 ], "texture": "#texture", "rotation": 270 },
                "north": { "uv": [ 1, 1, 0, 0 ], "texture": "#texture", "rotation": 270 },
                "south": { "uv": [ 1, 1, 0, 0 ], "texture": "#texture", "rotation": 90 },
                "west": { "uv": [ 1, 1, 0, 0 ], "texture": "#texture", "rotation": 90 },
                "east": { "uv": [ 0, 0, 1, 1 ], "texture": "#texture", "rotation": 270 }
            }
        },
        {
            "__comment": "Box7",
            "from": [ 9, 9, 7.5 ],
            "to": [ 10.5, 10, 8.5 ],
            "rotation": { "origin": [ 9, 9, 7.5 ], "axis": "z", "angle": 45 },
            "faces": {
                "down": { "uv": [ 0, 0, 1, 1 ], "texture": "#texture" },
                "up": { "uv": [ 0, 0, 1, 1 ], "texture": "#texture" },
                "north": { "uv": [ 0, 0, 1, 1 ], "texture": "#texture" },
                "south": { "uv": [ 0, 0, 1, 1 ], "texture": "#texture" },
                "west": { "uv": [ 0, 0, 1, 1 ], "texture": "#texture" },
                "east": { "uv": [ 0, 0, 1, 1 ], "texture": "#texture" }
            }
        },
        {
            "__comment": "Box8",
            "from": [ 5.94, 10.05, 7.5 ],
            "to": [ 6.94, 11.55, 8.5 ],
            "faces": {
                "down": { "uv": [ 0, 0, 1, 1 ], "texture": "#texture" },
                "up": { "uv": [ 0, 0, 1, 1 ], "texture": "#texture" },
                "north": { "uv": [ 0, 0, 1, 1 ], "texture": "#texture" },
                "south": { "uv": [ 0, 0, 1, 1 ], "texture": "#texture" },
                "west": { "uv": [ 0, 0, 1, 1 ], "texture": "#texture" },
                "east": { "uv": [ 0, 0, 1, 1 ], "texture": "#texture" }
            }
        },
        {
            "__comment": "Box9",
            "from": [ 9.059999, 10.05, 7.5 ],
            "to": [ 10.06, 11.55, 8.5 ],
            "faces": {
                "down": { "uv": [ 0, 0, 1, 1 ], "texture": "#texture" },
                "up": { "uv": [ 0, 0, 1, 1 ], "texture": "#texture" },
                "north": { "uv": [ 0, 0, 1, 1 ], "texture": "#texture" },
                "south": { "uv": [ 0, 0, 1, 1 ], "texture": "#texture" },
                "west": { "uv": [ 0, 0, 1, 1 ], "texture": "#texture" },
                "east": { "uv": [ 0, 0, 1, 1 ], "texture": "#texture" }
            }
        },
        {
            "__comment": "Box2",
            "from": [ 7.25, 4.5, 7.25 ],
            "to": [ 8.75, 5, 8.75 ],
            "faces": {
                "down": { "uv": [ 0, 0, 1, 1 ], "texture": "#texture" },
                "up": { "uv": [ 0, 0, 1, 1 ], "texture": "#texture" },
                "north": { "uv": [ 0, 0, 1, 1 ], "texture": "#texture" },
                "south": { "uv": [ 0, 0, 1, 1 ], "texture": "#texture" },
                "west": { "uv": [ 0, 0, 1, 1 ], "texture": "#texture" },
                "east": { "uv": [ 0, 0, 1, 1 ], "texture": "#texture" }
            }
        },
        {
            "__comment": "Box2",
            "from": [ 7.25, 5.5, 7.25 ],
            "to": [ 8.75, 6, 8.75 ],
            "faces": {
                "down": { "uv": [ 0, 0, 1, 1 ], "texture": "#texture" },
                "up": { "uv": [ 0, 0, 1, 1 ], "texture": "#texture" },
                "north": { "uv": [ 0, 0, 1, 1 ], "texture": "#texture" },
                "south": { "uv": [ 0, 0, 1, 1 ], "texture": "#texture" },
                "west": { "uv": [ 0, 0, 1, 1 ], "texture": "#texture" },
                "east": { "uv": [ 0, 0, 1, 1 ], "texture": "#texture" }
            }
        },
        {
            "__comment": "Box2",
            "from": [ 7.25, 6.5, 7.25 ],
            "to": [ 8.75, 7, 8.75 ],
            "faces": {
                "down": { "uv": [ 0, 0, 1, 1 ], "texture": "#texture" },
                "up": { "uv": [ 0, 0, 1, 1 ], "texture": "#texture" },
                "north": { "uv": [ 0, 0, 1, 1 ], "texture": "#texture" },
                "south": { "uv": [ 0, 0, 1, 1 ], "texture": "#texture" },
                "west": { "uv": [ 0, 0, 1, 1 ], "texture": "#texture" },
                "east": { "uv": [ 0, 0, 1, 1 ], "texture": "#texture" }
            }
        },
        {
            "__comment": "Box2",
            "from": [ 7.25, 7.5, 7.25 ],
            "to": [ 8.75, 8, 8.75 ],
            "faces": {
                "down": { "uv": [ 0, 0, 1, 1 ], "texture": "#texture" },
                "up": { "uv": [ 0, 0, 1, 1 ], "texture": "#texture" },
                "north": { "uv": [ 0, 0, 1, 1 ], "texture": "#texture" },
                "south": { "uv": [ 0, 0, 1, 1 ], "texture": "#texture" },
                "west": { "uv": [ 0, 0, 1, 1 ], "texture": "#texture" },
                "east": { "uv": [ 0, 0, 1, 1 ], "texture": "#texture" }
            }
        },
        {
            "__comment": "Box2",
            "from": [ 7.25, 8.5, 7.25 ],
            "to": [ 8.75, 9, 8.75 ],
            "faces": {
                "down": { "uv": [ 0, 0, 1, 1 ], "texture": "#texture" },
                "up": { "uv": [ 0, 0, 1, 1 ], "texture": "#texture" },
                "north": { "uv": [ 0, 0, 1, 1 ], "texture": "#texture" },
                "south": { "uv": [ 0, 0, 1, 1 ], "texture": "#texture" },
                "west": { "uv": [ 0, 0, 1, 1 ], "texture": "#texture" },
                "east": { "uv": [ 0, 0, 1, 1 ], "texture": "#texture" }
            }
        },
        {
            "__comment": "Box2",
            "from": [ 7.25, 2.5, 7.25 ],
            "to": [ 8.75, 3, 8.75 ],
            "faces": {
                "down": { "uv": [ 0, 0, 1, 1 ], "texture": "#texture" },
                "up": { "uv": [ 0, 0, 1, 1 ], "texture": "#texture" },
                "north": { "uv": [ 0, 0, 1, 1 ], "texture": "#texture" },
                "south": { "uv": [ 0, 0, 1, 1 ], "texture": "#texture" },
                "west": { "uv": [ 0, 0, 1, 1 ], "texture": "#texture" },
                "east": { "uv": [ 0, 0, 1, 1 ], "texture": "#texture" }
            }
        },
        {
            "__comment": "Box2",
            "from": [ 7.25, 1.5, 7.25 ],
            "to": [ 8.75, 2, 8.75 ],
            "faces": {
                "down": { "uv": [ 0, 0, 1, 1 ], "texture": "#texture" },
                "up": { "uv": [ 0, 0, 1, 1 ], "texture": "#texture" },
                "north": { "uv": [ 0, 0, 1, 1 ], "texture": "#texture" },
                "south": { "uv": [ 0, 0, 1, 1 ], "texture": "#texture" },
                "west": { "uv": [ 0, 0, 1, 1 ], "texture": "#texture" },
                "east": { "uv": [ 0, 0, 1, 1 ], "texture": "#texture" }
            }
        }
    ],
    "display": {
        "thirdperson_righthand": {
            "rotation":  [ 57, -90, 55 ],
            "translation":  [ 0, 1.2173, 1.1956 ],
            "scale":  [ 0.85, 0.85, 0.85 ]
        },
        "thirdperson_lefthand": {
            "rotation":  [ 57, -90, 55 ],
            "translation":  [ 0, 1.2173, 1.1956 ],
            "scale":  [ 0.85, 0.85, 0.85 ]
        },
        "firstperson_righthand": {
            "rotation":  [ 0, -90, 25 ],
            "translation":  [ 0.4343, 4.5913, 1.1299 ],
            "scale":  [ 0.68, 0.68, 0.68 ]
        },
        "firstperson_lefthand": {
            "rotation":  [ 0, -90, 25 ],
            "translation":  [ 0.4343, 4.5913, 1.1299 ],
            "scale":  [ 0.68, 0.68, 0.68 ]
        },
        "gui": {
            "rotation":  [ -4, -150, 41 ],
            "translation":  [ 0.6956, 0.6956, 0 ],
            "scale":  [1.4, 1.4, 1.4]
        },
        "head": {
            "translation":  [ 0, 0, -6.956 ]
        },
        "ground": {
            "rotation":  [ 56, 0, 0 ],
            "translation":  [ 0, 2, 0 ],
            "scale":  [ 0.7, 0.7, 0.7 ]
        }
    }
}