{
  "type": "minecraft:block",
  "pools": [
    {
      "bonus_rolls": 0.0,
      "conditions": [
        {
          "condition": "minecraft:survives_explosion"
        }
      ],
      "entries": [
        {
          "type": "minecraft:item",
          "name": "planttech2:hedge_dark_oak_spruce_dirt"
        }
      ],
      "rolls": 1.0
    }
  ],
  "random_sequence": "planttech2:blocks/hedge_dark_oak_spruce_dirt"
}