{
  "type": "minecraft:block",
  "pools": [
    {
      "bonus_rolls": 0.0,
      "conditions": [
        {
          "condition": "minecraft:survives_explosion"
        }
      ],
      "entries": [
        {
          "type": "minecraft:item",
          "name": "planttech2:hedge_oak_spruce_podzol"
        }
      ],
      "rolls": 1.0
    }
  ],
  "random_sequence": "planttech2:blocks/hedge_oak_spruce_podzol"
}