{
  "abyssalnite": true,
  "adamantine": false,
  "allay": true,
  "allium": true,
  "aluminum": false,
  "aluminum_brass": false,
  "alumite": false,
  "amber": false,
  "amethyst": true,
  "apatite": false,
  "aquamarine": false,
  "ardite": false,
  "awakened_draconium": false,
  "azure_bluet": true,
  "bamboo": true,
  "basalt": false,
  "beast": true,
  "bee": true,
  "beetroots": true,
  "black_quartz": false,
  "blaze": true,
  "blitz": false,
  "blizz": false,
  "blue_orchid": true,
  "blue_topaz": false,
  "brass": false,
  "bronze": false,
  "cactus": true,
  "carrot": true,
  "certus_quartz": false,
  "chicken": true,
  "chimerite": false,
  "chorus": true,
  "chrome": false,
  "coal": true,
  "cobalt": false,
  "cocoa_bean": true,
  "cold_iron": false,
  "compressed_iron": false,
  "conductive_iron": false,
  "constantan": false,
  "copper": true,
  "coralium": false,
  "cornflower": true,
  "cow": true,
  "creeper": true,
  "dancium": true,
  "dandelion": true,
  "dark_gem": false,
  "dark_steel": false,
  "desh": false,
  "diamond": true,
  "dirt": true,
  "draconium": false,
  "dreadium": false,
  "drowned": true,
  "electrical_steel": false,
  "electrotine": false,
  "electrum": false,
  "elementium": false,
  "emerald": true,
  "end_steel": false,
  "ender_amethyst": false,
  "ender_biotite": false,
  "enderdragon": true,
  "enderium": false,
  "enderman": true,
  "endstone": true,
  "energetic_alloy": false,
  "fish": true,
  "fluix_crystal": false,
  "fluxed_electrum": false,
  "frog": true,
  "ghast": true,
  "glow_berries": true,
  "glowing_squid": true,
  "glowstone": true,
  "glowstone_ingot": false,
  "goat": true,
  "gold": true,
  "graphite": false,
  "guardian": true,
  "husk": true,
  "illager": true,
  "invar": false,
  "iridium": false,
  "iron": true,
  "kanekium": true,
  "kelp": true,
  "kinnoium": true,
  "knightslime": false,
  "lapis": true,
  "lava": true,
  "lead": false,
  "lenthurium": true,
  "lily_of_the_valley": true,
  "lithium": false,
  "lumium": false,
  "magma_cube": true,
  "magnesium": false,
  "malachite": false,
  "manasteel": false,
  "manyullyn": false,
  "melon": true,
  "meteoric_iron": false,
  "mithril": false,
  "moonstone": false,
  "mooshroom": true,
  "mushroom": true,
  "mycelium": true,
  "nether_wart": true,
  "netherite": true,
  "netherrack": true,
  "neutronium": false,
  "nickel": false,
  "octine": false,
  "orange_tulip": true,
  "osmium": false,
  "oxeye_daisy": true,
  "panda": true,
  "parrot": true,
  "peridot": false,
  "pig": true,
  "pink_tulip": true,
  "plantium": true,
  "platinum": false,
  "polarbear": true,
  "poppy": true,
  "potato": true,
  "prismarine": true,
  "pulsating_iron": false,
  "pumpkin": true,
  "quartz": true,
  "quicksilver": false,
  "rabbit": true,
  "red_tulip": true,
  "redstone": true,
  "redstone_alloy": false,
  "refined_obsidian": false,
  "rock_crystal": false,
  "rubber": false,
  "ruby": false,
  "saltpeter": false,
  "sand": true,
  "sapphire": false,
  "sheep": true,
  "shulker": true,
  "signalum": false,
  "silicon": false,
  "silver": false,
  "skeleton": true,
  "sky_stone": false,
  "slate": false,
  "slime": true,
  "slimy_bone": false,
  "snow": true,
  "soularium": false,
  "soulsand": true,
  "spider": true,
  "sponge": true,
  "squid": true,
  "star_steel": false,
  "starmetal": false,
  "steel": false,
  "stone": true,
  "stray": true,
  "sugarcane": true,
  "sulfur": false,
  "sunstone": false,
  "sweet_berries": true,
  "syrmorite": false,
  "tanzanite": false,
  "terrasteel": false,
  "thaumium": false,
  "tin": false,
  "titanium": false,
  "topaz": false,
  "tungsten": false,
  "turtle": true,
  "uranium": false,
  "valonite": false,
  "vibrant_alloy": false,
  "villager": true,
  "vine": true,
  "vinteum": false,
  "void_metal": false,
  "warden": true,
  "water": true,
  "wheat": true,
  "white_tulip": true,
  "witch": true,
  "wither": true,
  "wither_rose": true,
  "wither_skeleton": true,
  "wood": true,
  "yellorium": false,
  "zinc": false,
  "zombie": true,
  "zombie_pigman": true,
  "zombie_villager": true
}