{
  "crop": "allay",
  "drops": [
    {
      "item": "planttech2:allay_particles",
      "max": 8,
      "min": 0
    }
  ],
  "parents": [
    {
      "chance": 0.1,
      "parent_1": "chicken",
      "parent_2": "squid"
    }
  ],
  "primary_seed": {
    "item": "planttech2:allay_seeds",
    "max": 4,
    "min": 1
  },
  "seeds": [],
  "soil": {
    "block": "minecraft:dirt"
  },
  "temperature": {
    "maxTemperatureTolerance": 0.65,
    "minTemperatureTolerance": 0.41
  }
}