{
  "crop": "carrot",
  "drops": [
    {
      "item": "minecraft:carrot",
      "max": 4,
      "min": 0
    }
  ],
  "parents": [],
  "primary_seed": {
    "item": "planttech2:carrot_seeds",
    "max": 4,
    "min": 1
  },
  "seeds": [
    {
      "item": "minecraft:carrot"
    }
  ],
  "soil": {
    "block": "minecraft:dirt"
  },
  "temperature": {
    "maxTemperatureTolerance": 0.65,
    "minTemperatureTolerance": 0.41
  }
}