{
  "crop": "dancium",
  "drops": [
    {
      "item": "planttech2:dancium_particles",
      "max": 8,
      "min": 0
    }
  ],
  "parents": [
    {
      "chance": 0.1,
      "parent_1": "plantium",
      "parent_2": "fish"
    }
  ],
  "primary_seed": {
    "item": "planttech2:dancium_seeds",
    "max": 4,
    "min": 1
  },
  "seeds": [],
  "soil": {
    "block": "minecraft:dirt"
  },
  "temperature": {
    "maxTemperatureTolerance": 0.65,
    "minTemperatureTolerance": 0.41
  }
}