{
  "crop": "dandelion",
  "drops": [
    {
      "item": "planttech2:color_particles",
      "max": 4,
      "min": 1
    },
    {
      "item": "minecraft:dandelion",
      "max": 4,
      "min": 0
    }
  ],
  "parents": [],
  "primary_seed": {
    "item": "planttech2:dandelion_seeds",
    "max": 4,
    "min": 1
  },
  "seeds": [
    {
      "item": "minecraft:dandelion"
    }
  ],
  "soil": {
    "block": "minecraft:dirt"
  },
  "temperature": {
    "maxTemperatureTolerance": 0.65,
    "minTemperatureTolerance": 0.41
  }
}