{
  "crop": "fish",
  "drops": [
    {
      "item": "planttech2:fish_particles",
      "max": 8,
      "min": 0
    }
  ],
  "parents": [
    {
      "chance": 0.1,
      "parent_1": "cactus",
      "parent_2": "sugarcane"
    }
  ],
  "primary_seed": {
    "item": "planttech2:fish_seeds",
    "max": 4,
    "min": 1
  },
  "seeds": [],
  "soil": {
    "block": "minecraft:dirt"
  },
  "temperature": {
    "maxTemperatureTolerance": 0.41,
    "minTemperatureTolerance": 0.1
  }
}