{
  "crop": "plantium",
  "drops": [
    {
      "item": "planttech2:plantium_particles",
      "max": 8,
      "min": 0
    }
  ],
  "parents": [],
  "primary_seed": {
    "item": "planttech2:plantium_seeds",
    "max": 4,
    "min": 1
  },
  "seeds": [
    {
      "item": "planttech2:plantium_nugget"
    }
  ],
  "soil": {
    "block": "planttech2:plantium_block"
  },
  "temperature": {
    "maxTemperatureTolerance": 0.65,
    "minTemperatureTolerance": 0.41
  }
}