{
  "crop": "steel",
  "drops": [
    {
      "item": "planttech2:steel_particles",
      "max": 8,
      "min": 0
    }
  ],
  "parents": [],
  "primary_seed": {
    "item": "planttech2:steel_seeds",
    "max": 4,
    "min": 1
  },
  "seeds": [
    {
      "tag": "forge:gems/steel"
    },
    {
      "tag": "forge:ingots/steel"
    }
  ],
  "soil": {
    "block": "minecraft:dirt"
  },
  "temperature": {
    "maxTemperatureTolerance": 0.65,
    "minTemperatureTolerance": 0.41
  }
}