{
  "crop": "wither_skeleton",
  "drops": [
    {
      "item": "planttech2:wither_skeleton_particles",
      "max": 8,
      "min": 0
    }
  ],
  "parents": [
    {
      "chance": 0.1,
      "parent_1": "skeleton",
      "parent_2": "netherrack"
    }
  ],
  "primary_seed": {
    "item": "planttech2:wither_skeleton_seeds",
    "max": 4,
    "min": 1
  },
  "seeds": [],
  "soil": {
    "block": "minecraft:dirt"
  },
  "temperature": {
    "maxTemperatureTolerance": 2.0,
    "minTemperatureTolerance": 1.5
  }
}