{
  "parent": "minecraft:recipes/root",
  "criteria": {
    "brown_mushroom_block": {
      "conditions": {
        "items": [
          {
            "items": [
              "minecraft:brown_mushroom_block"
            ]
          }
        ]
      },
      "trigger": "minecraft:inventory_changed"
    },
    "has_the_recipe": {
      "conditions": {
        "recipe": "planttech2:brown_mushroom_slab"
      },
      "trigger": "minecraft:recipe_unlocked"
    }
  },
  "requirements": [
    [
      "brown_mushroom_block",
      "has_the_recipe"
    ]
  ],
  "rewards": {
    "recipes": [
      "planttech2:brown_mushroom_slab"
    ]
  },
  "sends_telemetry_event": false
}