{
  "parent": "minecraft:recipes/root",
  "criteria": {
    "has_the_recipe": {
      "conditions": {
        "recipe": "planttech2:hedge_dark_oak_dark_oak_dirt"
      },
      "trigger": "minecraft:recipe_unlocked"
    },
    "leaves": {
      "conditions": {
        "items": [
          {
            "items": [
              "minecraft:dark_oak_leaves"
            ]
          }
        ]
      },
      "trigger": "minecraft:inventory_changed"
    }
  },
  "requirements": [
    [
      "leaves",
      "has_the_recipe"
    ]
  ],
  "rewards": {
    "recipes": [
      "planttech2:hedge_dark_oak_dark_oak_dirt"
    ]
  },
  "sends_telemetry_event": false
}