{
  "parent": "planttech2:block/hedge/base/hedge_base",
  "textures": {
    "leaves": "minecraft:block/birch_leaves",
    "particle": "minecraft:block/spruce_log",
    "soil": "minecraft:block/podzol_top",
    "wood": "minecraft:block/spruce_log"
  }
}