{
  "parent": "planttech2:block/hedge/base/hedge_base",
  "textures": {
    "leaves": "minecraft:block/dark_oak_leaves",
    "particle": "minecraft:block/dark_oak_log",
    "soil": "minecraft:block/podzol_top",
    "wood": "minecraft:block/dark_oak_log"
  }
}