{
  "parent": "planttech2:block/hedge/base/hedge_adding",
  "textures": {
    "leaves": "minecraft:block/dark_oak_leaves",
    "particle": "minecraft:block/acacia_log",
    "soil": "minecraft:block/grass_block_top",
    "wood": "minecraft:block/acacia_log"
  }
}