{
  "parent": "planttech2:block/hedge/base/hedge_adding",
  "textures": {
    "leaves": "minecraft:block/spruce_leaves",
    "particle": "minecraft:block/spruce_log",
    "soil": "minecraft:block/dirt",
    "wood": "minecraft:block/spruce_log"
  }
}