{
  "type": "planttech2:chipalyzer",
  "chip": {
    "count": 1,
    "item": "planttech2:empty_upgradechip_1"
  },
  "input": {
    "item": "minecraft:golden_pickaxe"
  },
  "result": {
    "count": 1,
    "item": "planttech2:breakdownratechip_tier_1"
  }
}