{
  "type": "planttech2:chipalyzer",
  "chip": {
    "count": 1,
    "item": "planttech2:reactorchip_tier_1"
  },
  "input": {
    "item": "planttech2:chip_upgradepack_reactor_1"
  },
  "result": {
    "count": 1,
    "item": "planttech2:reactorchip_tier_2"
  }
}