{
  "type": "planttech2:chipalyzer",
  "chip": {
    "count": 1,
    "item": "planttech2:empty_upgradechip_1"
  },
  "input": {
    "enchantment": "minecraft:smite"
  },
  "result": {
    "count": 1,
    "item": "planttech2:smite_chip"
  }
}