{
  "type": "planttech2:chipalyzer",
  "chip": {
    "count": 1,
    "item": "planttech2:toughnesschip_tier_1"
  },
  "input": {
    "item": "planttech2:empty_upgradechip_2"
  },
  "result": {
    "count": 1,
    "item": "planttech2:toughnesschip_tier_2"
  }
}