{
  "parent": "minecraft:block/template_candle",
  "textures": {
    "all": "planttech2:block/building_blocks/mushrooms/crimson_hyphae_candle_lit",
    "particle": "planttech2:block/building_blocks/mushrooms/crimson_hyphae_candle_lit"
  }
}