{
  "parent": "minecraft:block/template_four_candles",
  "textures": {
    "all": "planttech2:block/building_blocks/mushrooms/crimson_hyphae_candle",
    "particle": "planttech2:block/building_blocks/mushrooms/crimson_hyphae_candle"
  }
}