{
  "parent": "minecraft:block/template_three_candles",
  "textures": {
    "all": "planttech2:block/building_blocks/mushrooms/red_mushroom_candle",
    "particle": "planttech2:block/building_blocks/mushrooms/red_mushroom_candle"
  }
}