{
  "parent": "minecraft:block/template_three_candles",
  "textures": {
    "all": "planttech2:block/building_blocks/mushrooms/warped_hyphae_candle_lit",
    "particle": "planttech2:block/building_blocks/mushrooms/warped_hyphae_candle_lit"
  }
}