{
  "parent": "minecraft:recipes/root",
  "criteria": {
    "has_glass_pane": {
      "conditions": {
        "items": [
          {
            "items": [
              "minecraft:glass_pane"
            ]
          }
        ]
      },
      "trigger": "minecraft:inventory_changed"
    },
    "has_the_recipe": {
      "conditions": {
        "recipe": "planttech2:solarfocus_3"
      },
      "trigger": "minecraft:recipe_unlocked"
    }
  },
  "requirements": [
    [
      "has_glass_pane",
      "has_the_recipe"
    ]
  ],
  "rewards": {
    "recipes": [
      "planttech2:solarfocus_3"
    ]
  },
  "sends_telemetry_event": false
}